lab10/Raymond/sim/src/sim/simt_stack_tb.vcd
$date
	Thu Mar 26 23:16:12 2026
$end
$version
	Icarus Verilog
$end
$timescale
	1ps
$end
$scope module simt_stack_tb $end
$var wire 4 ! tos_saved_mask [3:0] $end
$var wire 32 " tos_reconv_pc [31:0] $end
$var wire 1 # tos_phase $end
$var wire 32 $ tos_pend_pc [31:0] $end
$var wire 4 % tos_pend_mask [3:0] $end
$var wire 1 & stack_full $end
$var wire 1 ' stack_empty $end
$var reg 1 ( clk $end
$var reg 1 ) modify_tos $end
$var reg 1 * pop $end
$var reg 1 + push $end
$var reg 4 , push_pend_mask [3:0] $end
$var reg 32 - push_pend_pc [31:0] $end
$var reg 32 . push_reconv_pc [31:0] $end
$var reg 4 / push_saved_mask [3:0] $end
$var reg 1 0 rst_n $end
$var integer 32 1 fail_count [31:0] $end
$var integer 32 2 pass_count [31:0] $end
$scope module uut $end
$var wire 1 3 clear $end
$var wire 1 ( clk $end
$var wire 1 ) modify_tos $end
$var wire 1 * pop $end
$var wire 1 + push $end
$var wire 4 4 push_pend_mask [3:0] $end
$var wire 32 5 push_pend_pc [31:0] $end
$var wire 32 6 push_reconv_pc [31:0] $end
$var wire 4 7 push_saved_mask [3:0] $end
$var wire 1 0 rst_n $end
$var wire 73 8 tos_entry [72:0] $end
$var wire 4 9 tos_saved_mask [3:0] $end
$var wire 32 : tos_reconv_pc [31:0] $end
$var wire 1 # tos_phase $end
$var wire 32 ; tos_pend_pc [31:0] $end
$var wire 4 < tos_pend_mask [3:0] $end
$var wire 4 = tos_idx [3:0] $end
$var wire 1 & stack_full $end
$var wire 1 ' stack_empty $end
$var wire 73 > push_entry [72:0] $end
$var wire 73 ? modified_tos [72:0] $end
$var parameter 32 @ DEPTH $end
$var parameter 36 A ENTRY_W $end
$var parameter 36 B PEND_MASK_HI $end
$var parameter 35 C PEND_MASK_LO $end
$var parameter 34 D PEND_PC_HI $end
$var parameter 32 E PEND_PC_LO $end
$var parameter 32 F PHASE_LO $end
$var parameter 41 G RECONV_PC_HI $end
$var parameter 39 H RECONV_PC_LO $end
$var parameter 38 I SAVED_MASK_HI $end
$var parameter 37 J SAVED_MASK_LO $end
$var reg 4 K sp [3:0] $end
$var reg 4 L wr_addr [3:0] $end
$var reg 73 M wr_data [72:0] $end
$var reg 1 N wr_en $end
$upscope $end
$scope begin drain_stack $end
$var integer 32 O j [31:0] $end
$upscope $end
$scope begin fill_stack $end
$var integer 32 P j [31:0] $end
$upscope $end
$scope task check $end
$var reg 1 Q cond $end
$var reg 256 R label [255:0] $end
$upscope $end
$scope task do_modify $end
$upscope $end
$scope task do_pop $end
$upscope $end
$scope task do_push $end
$var reg 4 S pend [3:0] $end
$var reg 32 T pend_pc_val [31:0] $end
$var reg 32 U reconv [31:0] $end
$var reg 4 V saved [3:0] $end
$upscope $end
$upscope $end
$enddefinitions $end
$comment Show the parameter values. $end
$dumpall
b100101 J
b101000 I
b101001 H
b1001000 G
b0 F
b1 E
b100000 D
b100001 C
b100100 B
b1001001 A
b1000 @
$end
#0
$dumpvars
bx V
bx U
bx T
bx S
bx R
xQ
bx P
bx O
0N
b0 M
b0 L
b0 K
bx1 ?
b0 >
b1111 =
bx <
bx ;
bx :
bx 9
bx 8
b0 7
b0 6
b0 5
b0 4
z3
b0 2
b0 1
00
b0 /
b0 .
b0 -
b0 ,
0+
0*
0)
0(
1'
0&
bx %
bx $
x#
bx "
bx !
$end
#5000
1(
#10000
0(
#15000
10
1(
#20000
0(
#25000
1(
#26000
b10001 T
b1100 S
b1111 V
b100000 U
b10 2
1Q
b11100110111010001100001011000110110101101011111011001100111010101101100011011000010000001100100011001010110000101110011011100110110010101110010011101000110010101100100 R
#30000
1N
b10000011111100000000000000000000000000000100010 M
b10001 -
b10001 5
b1100 ,
b1100 4
b1111 /
b1111 7
b10000011111100000000000000000000000000000100010 >
b100000 .
b100000 6
1+
0(
#35000
b100000 "
b100000 :
b1111 !
b1111 9
b1100 %
b1100 <
b10001 $
b10001 ;
0#
b10000011111100000000000000000000000000000100011 ?
1N
b1 L
0'
b10000011111100000000000000000000000000000100010 8
b0 =
b1 K
1(
#36000
0N
0+
b1001 2
b1110100011011110111001101011111011100000110100001100001011100110110010100100000001111010011110100100000001100000010000000101000011101000110000101101011011001010110111000101101011001100110100101110010011100110111010000101001 R
#40000
1N
b10000011111100000000000000000000000000000100011 M
b0 L
1)
0(
#45000
1#
b10000011111100000000000000000000000000000100011 8
1(
#46000
0N
b10000011111100000000000000000000000000000100010 M
b1 L
0)
b1110 2
b11101000110111101110011010111110111000001100101011011100110010001011111011100000110001100100000011101010110111001100011011010000110000101101110011001110110010101100100 R
#50000
1*
0(
#55000
bx "
bx :
bx !
bx 9
bx %
bx <
bx $
bx ;
x#
bx1 ?
b0 L
1'
bx 8
b1111 =
b0 K
1(
#56000
0*
b10101 T
b1010 S
b110000 U
b1111 2
b11100110111010001100001011000110110101101011111011001010110110101110000011101000111100100100000011000010110011001110100011001010111001000100000011100000110111101110000 R
#60000
1N
b11000011111010000000000000000000000000000101010 M
b10101 -
b10101 5
b1010 ,
b1010 4
b11000011111010000000000000000000000000000101010 >
b110000 .
b110000 6
1+
0(
#65000
b110000 "
b110000 :
b1111 !
b1111 9
b1010 %
b1010 <
b10101 $
b10101 ;
0#
b11000011111010000000000000000000000000000101011 ?
1N
b1 L
0'
b11000011111010000000000000000000000000000101010 8
b0 =
b1 K
1(
#66000
0N
0+
b11010 T
b100 S
b101 V
b101000 U
#70000
1N
b10100001010100000000000000000000000000000110100 M
b11010 -
b11010 5
b100 ,
b100 4
b101 /
b101 7
b10100001010100000000000000000000000000000110100 >
b101000 .
b101000 6
1+
0(
#75000
b101000 "
b101000 :
b101 !
b101 9
b100 %
b100 <
b11010 $
b11010 ;
b10100001010100000000000000000000000000000110101 ?
1N
b10 L
b10100001010100000000000000000000000000000110100 8
b1 =
b10 K
1(
#76000
0N
0+
b11101 T
b0 S
b1 V
b100101 U
#80000
1N
b10010100010000000000000000000000000000000111010 M
b11101 -
b11101 5
b0 ,
b0 4
b1 /
b1 7
b10010100010000000000000000000000000000000111010 >
b100101 .
b100101 6
1+
0(
#85000
b100101 "
b100101 :
b1 !
b1 9
b0 %
b0 <
b11101 $
b11101 ;
b10010100010000000000000000000000000000000111011 ?
1N
b11 L
b10010100010000000000000000000000000000000111010 8
b10 =
b11 K
1(
#86000
0N
0+
b10010 2
b1010100010011110101001100100000011010010111001100100000011011000110010101110110011001010110110000101101001100100010000001110000011001010110111001100100 R
#90000
1*
0(
#95000
b101000 "
b101000 :
b101 !
b101 9
b100 %
b100 <
b11010 $
b11010 ;
b10100001010100000000000000000000000000000110101 ?
b10 L
b10100001010100000000000000000000000000000110100 8
b1 =
b10 K
1(
#96000
0*
b10101 2
b10101000100111101010011001000000110100101110011001000000110110001100101011101100110010101101100001011010011000100100000011100000110010101101110011001000101111101101101011000010111001101101011 R
#100000
1*
0(
#105000
b110000 "
b110000 :
b1111 !
b1111 9
b1010 %
b1010 <
b10101 $
b10101 ;
b11000011111010000000000000000000000000000101011 ?
b1 L
b11000011111010000000000000000000000000000101010 8
b0 =
b1 K
1(
#106000
0*
b11000 2
b1010100010011110101001100100000011010010111001100100000011011000110010101110110011001010110110000101101001100000010000001110000011001010110111001100100010111110111000001100011 R
#110000
1*
0(
#115000
bx "
bx :
bx !
bx 9
bx %
bx <
bx $
bx ;
x#
bx1 ?
b0 L
1'
bx 8
b1111 =
b0 K
1(
#116000
0*
b1 T
b11 S
b1111 V
b0 U
b0 P
b11001 2
b11100110111010001100001011000110110101101011111011001010110110101110000011101000111100100100000011000010110011001110100011001010111001000100000001100110010000001110000011011110111000001110011 R
#120000
1N
b11110011000000000000000000000000000000010 M
b1 -
b1 5
b11 ,
b11 4
b1111 /
b1111 7
b11110011000000000000000000000000000000010 >
b0 .
b0 6
1+
0(
#125000
b0 "
b0 :
b1111 !
b1111 9
b11 %
b11 <
b1 $
b1 ;
0#
b11110011000000000000000000000000000000011 ?
1N
b1 L
0'
b11110011000000000000000000000000000000010 8
b0 =
b1 K
1(
#126000
0N
0+
b101 T
b100 U
b1 P
#130000
1N
b10011110011000000000000000000000000000001010 M
b101 -
b101 5
b10011110011000000000000000000000000000001010 >
b100 .
b100 6
1+
0(
#135000
b100 "
b100 :
b101 $
b101 ;
b10011110011000000000000000000000000000001011 ?
1N
b10 L
b10011110011000000000000000000000000000001010 8
b1 =
b10 K
1(
#136000
0N
0+
b1001 T
b1000 U
b10 P
#140000
1N
b100011110011000000000000000000000000000010010 M
b1001 -
b1001 5
b100011110011000000000000000000000000000010010 >
b1000 .
b1000 6
1+
0(
#145000
b1000 "
b1000 :
b1001 $
b1001 ;
b100011110011000000000000000000000000000010011 ?
1N
b11 L
b100011110011000000000000000000000000000010010 8
b10 =
b11 K
1(
#146000
0N
0+
b1101 T
b1100 U
b11 P
#150000
1N
b110011110011000000000000000000000000000011010 M
b1101 -
b1101 5
b110011110011000000000000000000000000000011010 >
b1100 .
b1100 6
1+
0(
#155000
b1100 "
b1100 :
b1101 $
b1101 ;
b110011110011000000000000000000000000000011011 ?
1N
b100 L
b110011110011000000000000000000000000000011010 8
b11 =
b100 K
1(
#156000
0N
0+
b10001 T
b10000 U
b100 P
#160000
1N
b1000011110011000000000000000000000000000100010 M
b10001 -
b10001 5
b1000011110011000000000000000000000000000100010 >
b10000 .
b10000 6
1+
0(
#165000
b10000 "
b10000 :
b10001 $
b10001 ;
b1000011110011000000000000000000000000000100011 ?
1N
b101 L
b1000011110011000000000000000000000000000100010 8
b100 =
b101 K
1(
#166000
0N
0+
b10101 T
b10100 U
b101 P
#170000
1N
b1010011110011000000000000000000000000000101010 M
b10101 -
b10101 5
b1010011110011000000000000000000000000000101010 >
b10100 .
b10100 6
1+
0(
#175000
b10100 "
b10100 :
b10101 $
b10101 ;
b1010011110011000000000000000000000000000101011 ?
1N
b110 L
b1010011110011000000000000000000000000000101010 8
b101 =
b110 K
1(
#176000
0N
0+
b11001 T
b11000 U
b110 P
#180000
1N
b1100011110011000000000000000000000000000110010 M
b11001 -
b11001 5
b1100011110011000000000000000000000000000110010 >
b11000 .
b11000 6
1+
0(
#185000
b11000 "
b11000 :
b11001 $
b11001 ;
b1100011110011000000000000000000000000000110011 ?
1N
b111 L
b1100011110011000000000000000000000000000110010 8
b110 =
b111 K
1(
#186000
0N
0+
b11101 T
b11100 U
b111 P
#190000
1N
b1110011110011000000000000000000000000000111010 M
b11101 -
b11101 5
b1110011110011000000000000000000000000000111010 >
b11100 .
b11100 6
1+
0(
#195000
b11100 "
b11100 :
b11101 $
b11101 ;
b1110011110011000000000000000000000000000111011 ?
0N
b1000 L
1&
b1110011110011000000000000000000000000000111010 8
b111 =
b1000 K
1(
#196000
0+
b1011111011101111 T
b1111 S
b1101111010101101 U
b11011 2
b10101000100111101010011001000000110100101110011001000000110010101101110011101000111001001111001001000000011011100100000011100100110010101100011011011110110111001110110 R
b1000 P
#200000
b110111101010110111111111000000000000000010111110111011110 M
b1011111011101111 -
b1011111011101111 5
b1111 ,
b1111 4
b110111101010110111111111000000000000000010111110111011110 >
b1101111010101101 .
b1101111010101101 6
1+
0(
#205000
1(
#206000
0+
b0 O
b11101 2
b1010100010011110101001100100000011101010110111001100011011010000110000101101110011001110110010101100100001000000110000101100110011101000110010101110010001000000110111101110110011001010111001001100110011011000110111101110111 R
#210000
1*
0(
#215000
b11000 "
b11000 :
b11001 $
b11001 ;
b1100011110011000000000000000000000000000110011 ?
b111 L
0&
b1100011110011000000000000000000000000000110010 8
b110 =
b111 K
1(
#216000
0*
b1 O
#220000
1*
0(
#225000
b10100 "
b10100 :
b10101 $
b10101 ;
b1010011110011000000000000000000000000000101011 ?
b110 L
b1010011110011000000000000000000000000000101010 8
b101 =
b110 K
1(
#226000
0*
b10 O
#230000
1*
0(
#235000
b10000 "
b10000 :
b10001 $
b10001 ;
b1000011110011000000000000000000000000000100011 ?
b101 L
b1000011110011000000000000000000000000000100010 8
b100 =
b101 K
1(
#236000
0*
b11 O
#240000
1*
0(
#245000
b1100 "
b1100 :
b1101 $
b1101 ;
b110011110011000000000000000000000000000011011 ?
b100 L
b110011110011000000000000000000000000000011010 8
b11 =
b100 K
1(
#246000
0*
b100 O
#250000
1*
0(
#255000
b1000 "
b1000 :
b1001 $
b1001 ;
b100011110011000000000000000000000000000010011 ?
b11 L
b100011110011000000000000000000000000000010010 8
b10 =
b11 K
1(
#256000
0*
b101 O
#260000
1*
0(
#265000
b100 "
b100 :
b101 $
b101 ;
b10011110011000000000000000000000000000001011 ?
b10 L
b10011110011000000000000000000000000000001010 8
b1 =
b10 K
1(
#266000
0*
b110 O
#270000
1*
0(
#275000
b0 "
b0 :
b1 $
b1 ;
b11110011000000000000000000000000000000011 ?
b1 L
b11110011000000000000000000000000000000010 8
b0 =
b1 K
1(
#276000
0*
b111 O
#280000
1*
0(
#285000
bx "
bx :
bx !
bx 9
bx %
bx <
bx $
bx ;
x#
bx1 ?
b0 L
1'
bx 8
b1111 =
b0 K
1(
#286000
0*
b11110 2
b111001101110100011000010110001101101011010111110110010101101101011100000111010001111001001000000110000101100110011101000110010101110010001000000110010001110010011000010110100101101110 R
b1000 O
#290000
1*
0(
#295000
1(
#296000
0*
b100001 T
b1100 S
b1000000 U
b11111 2
b111001101110100011010010110110001101100001000000110010101101101011100000111010001111001001000000110000101100110011101000110010101110010001000000111000001101111011100000010110101110111011010000110010101101110001011010110010101101101011100000111010001111001 R
#300000
1N
b100000011111100000000000000000000000000001000010 M
b100001 -
b100001 5
b1100 ,
b1100 4
b100000011111100000000000000000000000000001000010 >
b1000000 .
b1000000 6
1+
0(
#305000
b1000000 "
b1000000 :
b1111 !
b1111 9
b1100 %
b1100 <
b100001 $
b100001 ;
0#
b100000011111100000000000000000000000000001000011 ?
1N
b1 L
0'
b100000011111100000000000000000000000000001000010 8
b0 =
b1 K
1(
#306000
0N
0+
b100001 2
b111001101100001011101100110010101100100010111110110110101100001011100110110101100100000001111010010000001100110011101010110110001101100 R
#310000
1N
b100000011111100000000000000000000000000001000011 M
b0 L
1)
0(
#315000
1#
b100000011111100000000000000000000000000001000011 8
1(
#316000
0N
b100000011111100000000000000000000000000001000010 M
b1 L
0)
b100100 2
b111000001100101011011100110010001011111011100000110001100100000001111010010000000110000011110000011001000110001 R
#320000
1*
0(
#325000
bx "
bx :
bx !
bx 9
bx %
bx <
bx $
bx ;
x#
bx1 ?
b0 L
1'
bx 8
b1111 =
b0 K
1(
#326000
0*
b100101 2
b1100011011011110110111001110110011001010111001001100111011001010110010000111010001000000111001101110100011000010110001101101011001000000110010101101101011100000111010001111001 R
