Labs/Lab 10 Network Processor Integration and Refinements 2/Raymond/sim/src/sim/dma_engine_tb.vcd
$date
	Thu Mar 26 23:16:12 2026
$end
$version
	Icarus Verilog
$end
$timescale
	1ps
$end
$scope module dma_engine_tb $end
$var wire 32 ! cpu_dmem_dout [31:0] $end
$var wire 16 " gpu_dmem_dout [15:0] $end
$var wire 1 # gpu_imem_we $end
$var wire 32 $ gpu_imem_din [31:0] $end
$var wire 8 % gpu_imem_addr [7:0] $end
$var wire 1 & gpu_dmem_we $end
$var wire 2 ' gpu_dmem_sel [1:0] $end
$var wire 16 ( gpu_dmem_din [15:0] $end
$var wire 10 ) gpu_dmem_addr [9:0] $end
$var wire 1 * dma_error $end
$var wire 32 + dma_cur_addr [31:0] $end
$var wire 1 , dma_busy $end
$var wire 1 - cpu_dmem_we $end
$var wire 32 . cpu_dmem_din [31:0] $end
$var wire 12 / cpu_dmem_addr [11:0] $end
$var parameter 32 0 CLK_PERIOD $end
$var reg 1 1 clk $end
$var reg 32 2 cpu_dmem_dout_r [31:0] $end
$var reg 1 3 dma_auto_inc $end
$var reg 2 4 dma_bank [1:0] $end
$var reg 1 5 dma_burst_all $end
$var reg 1 6 dma_dir $end
$var reg 32 7 dma_dst_addr [31:0] $end
$var reg 32 8 dma_src_addr [31:0] $end
$var reg 1 9 dma_start $end
$var reg 1 : dma_tgt $end
$var reg 16 ; dma_xfer_len [15:0] $end
$var reg 16 < gpu_dmem_dout_r [15:0] $end
$var reg 1 = rst_n $end
$var integer 32 > fail_count [31:0] $end
$var integer 32 ? pass_count [31:0] $end
$var integer 32 @ test_num [31:0] $end
$scope module u_dut $end
$var wire 1 1 clk $end
$var wire 32 A cpu_dmem_dout [31:0] $end
$var wire 1 3 dma_auto_inc $end
$var wire 2 B dma_bank [1:0] $end
$var wire 1 5 dma_burst_all $end
$var wire 32 C dma_cur_addr [31:0] $end
$var wire 1 6 dma_dir $end
$var wire 32 D dma_dst_addr [31:0] $end
$var wire 32 E dma_src_addr [31:0] $end
$var wire 1 9 dma_start $end
$var wire 1 : dma_tgt $end
$var wire 16 F dma_xfer_len [15:0] $end
$var wire 16 G gpu_dmem_dout [15:0] $end
$var wire 1 = rst_n $end
$var parameter 4 H S_BANK_NEXT $end
$var parameter 4 I S_DONE $end
$var parameter 4 J S_IDLE $end
$var parameter 4 K S_IMEM_RD $end
$var parameter 4 L S_IMEM_WR $end
$var parameter 4 M S_PACK_RD_HI $end
$var parameter 4 N S_PACK_RD_LO $end
$var parameter 4 O S_PACK_WAIT $end
$var parameter 4 P S_PACK_WR $end
$var parameter 4 Q S_UNPACK_RD $end
$var parameter 4 R S_UNPACK_WR_HI $end
$var parameter 4 S S_UNPACK_WR_LO $end
$var reg 1 T auto_inc_r $end
$var reg 2 U banks_done [1:0] $end
$var reg 1 V burst_all_r $end
$var reg 32 W cpu_data_r [31:0] $end
$var reg 12 X cpu_dmem_addr [11:0] $end
$var reg 32 Y cpu_dmem_din [31:0] $end
$var reg 1 - cpu_dmem_we $end
$var reg 32 Z cpu_ptr [31:0] $end
$var reg 2 [ cur_bank [1:0] $end
$var reg 1 \ dir_r $end
$var reg 1 , dma_busy $end
$var reg 1 * dma_error $end
$var reg 32 ] gpu_base_r [31:0] $end
$var reg 10 ^ gpu_dmem_addr [9:0] $end
$var reg 16 _ gpu_dmem_din [15:0] $end
$var reg 2 ` gpu_dmem_sel [1:0] $end
$var reg 1 & gpu_dmem_we $end
$var reg 8 a gpu_imem_addr [7:0] $end
$var reg 32 b gpu_imem_din [31:0] $end
$var reg 1 # gpu_imem_we $end
$var reg 16 c gpu_lo_r [15:0] $end
$var reg 32 d gpu_ptr [31:0] $end
$var reg 4 e state [3:0] $end
$var reg 1 f tgt_r $end
$var reg 16 g words_left [15:0] $end
$var reg 16 h xfer_len_r [15:0] $end
$upscope $end
$scope task check1 $end
$var reg 1 i expected $end
$var reg 512 j name [511:0] $end
$var reg 1 k val $end
$upscope $end
$scope task check16 $end
$var reg 16 l expected [15:0] $end
$var reg 16 m got [15:0] $end
$var reg 512 n name [511:0] $end
$upscope $end
$scope task check32 $end
$var reg 32 o expected [31:0] $end
$var reg 32 p got [31:0] $end
$var reg 512 q name [511:0] $end
$upscope $end
$scope task fire_dma $end
$var reg 1 r auto_inc_v $end
$var reg 2 s bank_v [1:0] $end
$var reg 1 t burst_all_v $end
$var reg 1 u dir_v $end
$var reg 32 v dst [31:0] $end
$var reg 16 w len [15:0] $end
$var reg 32 x src [31:0] $end
$var reg 1 y tgt_v $end
$upscope $end
$scope task tick $end
$upscope $end
$scope task wait_idle $end
$var integer 32 z cyc [31:0] $end
$var integer 32 { max_cycles [31:0] $end
$upscope $end
$upscope $end
$enddefinitions $end
$comment Show the parameter values. $end
$dumpall
b100 S
b101 R
b11 Q
b1001 P
b1000 O
b110 N
b111 M
b10 L
b1 K
b0 J
b1011 I
b1010 H
b1010 0
$end
#0
$dumpvars
bx {
bx z
xy
bx x
bx w
bx v
xu
xt
bx s
xr
bx q
bx p
bx o
bx n
bx m
bx l
xk
bx j
xi
b0 h
b0 g
0f
b0 e
b0 d
b0 c
b0 b
b0 a
b0 `
b0 _
b0 ^
b0 ]
0\
b0 [
b0 Z
b0 Y
b0 X
b0 W
0V
b0 U
0T
bx G
b0 F
b0 E
b0 D
b0 C
b0 B
bx A
b0 @
b0 ?
b0 >
0=
bx <
b0 ;
0:
09
b0 8
b0 7
06
05
b0 4
03
bx 2
01
b0 /
b0 .
0-
0,
b0 +
0*
b0 )
b0 (
b0 '
0&
b0 %
b0 $
0#
bx "
bx !
$end
#5000
11
#10000
01
#15000
11
#20000
01
#25000
11
#26000
1=
#30000
01
#35000
11
#36000
19
1:
b100 ;
b100 F
b1010 7
b1010 D
0t
0r
b0 s
1y
0u
b100 w
b1010 v
b0 x
#40000
01
#45000
b1 e
b1010 ]
b1010 d
1,
b100 g
b100 h
1f
b10101010101010100000000000000000 !
b10101010101010100000000000000000 A
b10101010101010100000000000000000 2
11
#46000
b0 z
b11001000 {
09
#50000
01
#55000
b10 e
11
#56000
b1 z
#60000
01
#65000
b1 e
b1 /
b1 X
b11 g
b1011 d
b1 +
b1 C
b1 Z
1#
b10101010101010100000000000000000 $
b10101010101010100000000000000000 b
b1010 %
b1010 a
11
#66000
b10 z
#70000
01
#75000
b10 e
0#
b10111011101110110001000100010001 !
b10111011101110110001000100010001 A
b10111011101110110001000100010001 2
11
#76000
b11 z
#80000
01
#85000
b1 e
b10 /
b10 X
b10 g
b1100 d
b10 +
b10 C
b10 Z
1#
b10111011101110110001000100010001 $
b10111011101110110001000100010001 b
b1011 %
b1011 a
11
#86000
b100 z
#90000
01
#95000
b10 e
0#
b11001100110011000010001000100010 !
b11001100110011000010001000100010 A
b11001100110011000010001000100010 2
11
#96000
b101 z
#100000
01
#105000
b1 e
b11 /
b11 X
b1 g
b1101 d
b11 +
b11 C
b11 Z
1#
b11001100110011000010001000100010 $
b11001100110011000010001000100010 b
b1100 %
b1100 a
11
#106000
b110 z
#110000
01
#115000
b10 e
0#
b11011101110111010011001100110011 !
b11011101110111010011001100110011 A
b11011101110111010011001100110011 2
11
#116000
b111 z
#120000
01
#125000
b1010 e
b0 g
b1110 d
b100 +
b100 C
b100 Z
1#
b11011101110111010011001100110011 $
b11011101110111010011001100110011 b
b1101 %
b1101 a
11
#126000
b1000 z
#130000
01
#135000
b1011 e
0#
11
#136000
b1001 z
#140000
01
#145000
b0 e
0,
11
#146000
19
0:
b11 ;
b11 F
b0 7
b0 D
b1100100 8
b1100100 E
0y
b11 w
b0 v
b1100100 x
b10001110101000001010101001000000100100101001101010001010100110101011011001100010011001101011101 q
b11011101110111010011001100110011 o
b11011101110111010011001100110011 p
b110 ?
b110 @
b1000100010111110100100101001101010001010100110100111010001000000110111001101111001000000110010101110010011100100110111101110010 j
0i
0k
b1010 z
#150000
01
#155000
b11 e
b1100100 /
b1100100 X
b0 ]
b0 d
b1100100 +
b1100100 C
b1100100 Z
1,
b11 g
b11 h
0f
11
#156000
b0 z
09
#160000
01
#165000
b100 e
b10010001101000101011001111000 !
b10010001101000101011001111000 A
b10010001101000101011001111000 2
11
#166000
b1 z
#170000
01
#175000
b101 e
1&
b101011001111000 (
b101011001111000 _
b10010001101000101011001111000 W
11
#176000
b10 z
#180000
01
#185000
b11 e
b1100101 /
b1100101 X
b10 g
b10 d
b1100101 +
b1100101 C
b1100101 Z
b1001000110100 (
b1001000110100 _
b1 )
b1 ^
1&
11
#186000
b11 z
#190000
01
#195000
b100 e
0&
b10101011110011011110111100000001 !
b10101011110011011110111100000001 A
b10101011110011011110111100000001 2
11
#196000
b100 z
#200000
01
#205000
b101 e
1&
b1110111100000001 (
b1110111100000001 _
b10 )
b10 ^
b10101011110011011110111100000001 W
b1001000110100 "
b1001000110100 G
b1001000110100 <
11
#206000
b101 z
#210000
01
#215000
b11 e
b1100110 /
b1100110 X
b1 g
b100 d
b1100110 +
b1100110 C
b1100110 Z
b1010101111001101 (
b1010101111001101 _
b11 )
b11 ^
1&
bx "
bx G
bx <
11
#216000
b110 z
#220000
01
#225000
b100 e
0&
b10011000011101100101010000110010 !
b10011000011101100101010000110010 A
b10011000011101100101010000110010 2
11
#226000
b111 z
#230000
01
#235000
b101 e
1&
b101010000110010 (
b101010000110010 _
b100 )
b100 ^
b10011000011101100101010000110010 W
b1010101111001101 "
b1010101111001101 G
b1010101111001101 <
11
#236000
b1000 z
#240000
01
#245000
b1010 e
b0 g
b110 d
b1100111 +
b1100111 C
b1100111 Z
b1001100001110110 (
b1001100001110110 _
b101 )
b101 ^
1&
bx "
bx G
bx <
11
#246000
b1001 z
#250000
01
#255000
b1011 e
0&
11
#256000
b1010 z
#260000
01
#265000
b0 e
0,
b1001100001110110 "
b1001100001110110 G
b1001100001110110 <
11
#266000
19
b10 4
b10 B
b1 ;
b1 F
b11001000 8
b11001000 E
b10 s
b1 w
b11001000 x
b10001110101000001010101001000000100010001001101010001010100110100110000010110110011010101011101001000000010100001101000011010010010000001101111011001100010000001110111011011110111001001100100001000000011001000101001 n
b1001100001110110 l
b1001100001110110 m
b1110 ?
b1110 @
b10001000101111101010101010011100101000001000001010000110100101100111010001000000110111001101111001000000110010101110010011100100110111101110010 j
b1011 z
#270000
01
#275000
b11 e
b10 '
b10 `
b11001000 /
b11001000 X
b0 d
b11001000 +
b11001000 C
b11001000 Z
1,
b10 [
b1 g
b1 h
11
#276000
b0 z
09
#280000
01
#285000
b100 e
b11111110110111001011101010011000 !
b11111110110111001011101010011000 A
b11111110110111001011101010011000 2
bx "
bx G
bx <
11
#286000
b1 z
#290000
01
#295000
b101 e
1&
b1011101010011000 (
b1011101010011000 _
b0 )
b0 ^
b11111110110111001011101010011000 W
11
#296000
b10 z
#300000
01
#305000
b1010 e
b0 g
b10 d
b11001001 +
b11001001 C
b11001001 Z
b1111111011011100 (
b1111111011011100 _
b1 )
b1 ^
1&
11
#306000
b11 z
#310000
01
#315000
b1011 e
0&
11
#316000
b100 z
#320000
01
#325000
b0 e
0,
b1111111011011100 "
b1111111011011100 G
b1111111011011100 <
11
#326000
19
b0 4
b0 B
16
b11 ;
b11 F
b111110100 7
b111110100 D
b0 8
b0 E
b0 s
1u
b11 w
b111110100 v
b0 x
b10000 ?
b10000 @
b10001110101000001010101001000000100010001001101010001010100110100110010010110110011000101011101 n
b1111111011011100 l
b1111111011011100 m
b101 z
#330000
01
#335000
b110 e
b0 )
b0 ^
b0 '
b0 `
b0 d
b111110100 +
b111110100 C
b111110100 Z
1,
b0 [
b11 g
b11 h
1\
11
#336000
b0 z
09
#340000
01
#345000
b111 e
b101011001111000 "
b101011001111000 G
b101011001111000 <
11
#346000
b1 z
#350000
01
#355000
b1000 e
b1 )
b1 ^
b101011001111000 c
11
#356000
b10 z
#360000
01
#365000
b1001 e
b1001000110100 "
b1001000110100 G
b1001000110100 <
11
#366000
b11 z
#370000
01
#375000
b110 e
b10 )
b10 ^
b10 g
b10 d
b111110101 +
b111110101 C
b111110101 Z
1-
b10010001101000101011001111000 .
b10010001101000101011001111000 Y
b111110100 /
b111110100 X
11
#376000
b100 z
#380000
01
#385000
b111 e
0-
bx !
bx A
bx 2
b1110111100000001 "
b1110111100000001 G
b1110111100000001 <
11
#386000
b101 z
#390000
01
#395000
b1000 e
b11 )
b11 ^
b1110111100000001 c
b10010001101000101011001111000 !
b10010001101000101011001111000 A
b10010001101000101011001111000 2
11
#396000
b110 z
#400000
01
#405000
b1001 e
b1010101111001101 "
b1010101111001101 G
b1010101111001101 <
11
#406000
b111 z
#410000
01
#415000
b110 e
b100 )
b100 ^
b1 g
b100 d
b111110110 +
b111110110 C
b111110110 Z
1-
b10101011110011011110111100000001 .
b10101011110011011110111100000001 Y
b111110101 /
b111110101 X
11
#416000
b1000 z
#420000
01
#425000
b111 e
0-
bx !
bx A
bx 2
b101010000110010 "
b101010000110010 G
b101010000110010 <
11
#426000
b1001 z
#430000
01
#435000
b1000 e
b101 )
b101 ^
b101010000110010 c
b10101011110011011110111100000001 !
b10101011110011011110111100000001 A
b10101011110011011110111100000001 2
11
#436000
b1010 z
#440000
01
#445000
b1001 e
b1001100001110110 "
b1001100001110110 G
b1001100001110110 <
11
#446000
b1011 z
#450000
01
#455000
b1010 e
b0 g
b110 d
b111110111 +
b111110111 C
b111110111 Z
1-
b10011000011101100101010000110010 .
b10011000011101100101010000110010 Y
b111110110 /
b111110110 X
11
#456000
b1100 z
#460000
01
#465000
b1011 e
0-
bx !
bx A
bx 2
11
#466000
b1101 z
#470000
01
#475000
b0 e
0,
b10011000011101100101010000110010 !
b10011000011101100101010000110010 A
b10011000011101100101010000110010 2
11
#476000
19
1:
06
b1 ;
b1 F
b0 7
b0 D
b110010 8
b110010 E
1y
0u
b1 w
b0 v
b110010 x
b10000110101000001010101001000000100010001001101010001010100110101011011001101010011000000110010010111010010000000101000011100000110000101100011011010110010000001110111011011110111001001100100001000000011001000101001 q
b10011000011101100101010000110010 o
b10011000011101100101010000110010 p
b10101 ?
b10101 @
b1000100010111110101000001000001010000110100101100111010001000000110111001101111001000000110010101110010011100100110111101110010 j
b1110 z
#480000
01
#485000
b1 e
b110010 /
b110010 X
b0 d
b110010 +
b110010 C
b110010 Z
1,
b1 g
b1 h
1f
0\
11
#486000
b0 z
09
#490000
01
#495000
b10 e
b11011110101011011011111011101111 !
b11011110101011011011111011101111 A
b11011110101011011011111011101111 2
11
#496000
b1 z
#500000
01
#505000
b1010 e
b0 g
b1 d
b110011 +
b110011 C
b110011 Z
1#
b11011110101011011011111011101111 $
b11011110101011011011111011101111 b
b0 %
b0 a
11
#506000
b10 z
#510000
01
#515000
b1011 e
0#
11
#516000
b11 z
#520000
01
#525000
b0 e
0,
11
#526000
19
16
b0 8
b0 E
1u
b0 x
b10110 ?
b10110 @
b100011101010000010101010010000001001001010011010100010101001101010110110011000001011101001000000111001101101001011011100110011101101100011001010010000001110111011011110111001001100100 q
b11011110101011011011111011101111 o
b11011110101011011011111011101111 p
b100 z
#530000
01
#535000
b1011 e
1*
1,
b1 g
1\
11
#536000
b0 z
09
#540000
01
#545000
b0 e
0,
11
#546000
19
0:
06
b0 ;
b0 F
0y
0u
b0 w
b11000 ?
b11000 @
b100100101101110011101100110000101101100011010010110010000100000011011010110111101100100011001010011101000100000011000100111010101110011011110010010000001100100011001010110000101110011011100110110010101110010011101000110010101100100 j
0i
0k
b1 z
#550000
01
#555000
b1011 e
0*
1,
b0 g
b0 h
0f
0\
11
#556000
b0 z
09
#560000
01
#565000
b0 e
0,
11
#566000
19
15
b10 ;
b10 F
b10100 7
b10100 D
b100101100 8
b100101100 E
1t
b10 w
b10100 v
b100101100 x
b11010 ?
b11010 @
b10110100110010101110010011011110010000001101100011001010110111000111010001000000110111001101111001000000110010101110010011100100110111101110010 j
b1 z
#570000
01
#575000
b11 e
b100101100 /
b100101100 X
b10100 ]
b10100 d
b100101100 +
b100101100 C
b100101100 Z
1,
b10 g
b10 h
1V
11
#576000
b0 z
b111110100 {
09
#580000
01
#585000
b100 e
b10110000000000001011000000000001 !
b10110000000000001011000000000001 A
b10110000000000001011000000000001 2
11
#586000
b1 z
#590000
01
#595000
b101 e
1&
b1011000000000001 (
b1011000000000001 _
b10100 )
b10100 ^
b10110000000000001011000000000001 W
11
#596000
b10 z
#600000
01
#605000
b11 e
b100101101 /
b100101101 X
b1 g
b10110 d
b100101101 +
b100101101 C
b100101101 Z
b1011000000000000 (
b1011000000000000 _
b10101 )
b10101 ^
1&
bx "
bx G
bx <
11
#606000
b11 z
#610000
01
#615000
b100 e
0&
b10110000000000101011000000000011 !
b10110000000000101011000000000011 A
b10110000000000101011000000000011 2
11
#616000
b100 z
#620000
01
#625000
b101 e
1&
b1011000000000011 (
b1011000000000011 _
b10110 )
b10110 ^
b10110000000000101011000000000011 W
b1011000000000000 "
b1011000000000000 G
b1011000000000000 <
11
#626000
b101 z
#630000
01
#635000
b1010 e
b0 g
b11000 d
b100101110 +
b100101110 C
b100101110 Z
b1011000000000010 (
b1011000000000010 _
b10111 )
b10111 ^
1&
bx "
bx G
bx <
11
#636000
b110 z
#640000
01
#645000
b11 e
b100101110 /
b100101110 X
b10 g
b10100 d
b1 '
b1 `
b1 [
b1 U
0&
11
#646000
b111 z
#650000
01
#655000
b100 e
b10110001000000001011000100000001 !
b10110001000000001011000100000001 A
b10110001000000001011000100000001 2
11
#656000
b1000 z
#660000
01
#665000
b101 e
1&
b1011000100000001 (
b1011000100000001 _
b10100 )
b10100 ^
b10110001000000001011000100000001 W
11
#666000
b1001 z
#670000
01
#675000
b11 e
b100101111 /
b100101111 X
b1 g
b10110 d
b100101111 +
b100101111 C
b100101111 Z
b1011000100000000 (
b1011000100000000 _
b10101 )
b10101 ^
1&
11
#676000
b1010 z
#680000
01
#685000
b100 e
0&
b10110001000000101011000100000011 !
b10110001000000101011000100000011 A
b10110001000000101011000100000011 2
11
#686000
b1011 z
#690000
01
#695000
b101 e
1&
b1011000100000011 (
b1011000100000011 _
b10110 )
b10110 ^
b10110001000000101011000100000011 W
b1011000100000000 "
b1011000100000000 G
b1011000100000000 <
11
#696000
b1100 z
#700000
01
#705000
b1010 e
b0 g
b11000 d
b100110000 +
b100110000 C
b100110000 Z
b1011000100000010 (
b1011000100000010 _
b10111 )
b10111 ^
1&
bx "
bx G
bx <
11
#706000
b1101 z
#710000
01
#715000
b11 e
b100110000 /
b100110000 X
b10 g
b10100 d
b10 '
b10 `
b10 [
b10 U
0&
11
#716000
b1110 z
#720000
01
#725000
b100 e
b10110010000000001011001000000001 !
b10110010000000001011001000000001 A
b10110010000000001011001000000001 2
11
#726000
b1111 z
#730000
01
#735000
b101 e
1&
b1011001000000001 (
b1011001000000001 _
b10100 )
b10100 ^
b10110010000000001011001000000001 W
11
#736000
b10000 z
#740000
01
#745000
b11 e
b100110001 /
b100110001 X
b1 g
b10110 d
b100110001 +
b100110001 C
b100110001 Z
b1011001000000000 (
b1011001000000000 _
b10101 )
b10101 ^
1&
11
#746000
b10001 z
#750000
01
#755000
b100 e
0&
b10110010000000101011001000000011 !
b10110010000000101011001000000011 A
b10110010000000101011001000000011 2
11
#756000
b10010 z
#760000
01
#765000
b101 e
1&
b1011001000000011 (
b1011001000000011 _
b10110 )
b10110 ^
b10110010000000101011001000000011 W
b1011001000000000 "
b1011001000000000 G
b1011001000000000 <
11
#766000
b10011 z
#770000
01
#775000
b1010 e
b0 g
b11000 d
b100110010 +
b100110010 C
b100110010 Z
b1011001000000010 (
b1011001000000010 _
b10111 )
b10111 ^
1&
bx "
bx G
bx <
11
#776000
b10100 z
#780000
01
#785000
b11 e
b100110010 /
b100110010 X
b10 g
b10100 d
b11 '
b11 `
b11 [
b11 U
0&
11
#786000
b10101 z
#790000
01
#795000
b100 e
b10110011000000001011001100000001 !
b10110011000000001011001100000001 A
b10110011000000001011001100000001 2
11
#796000
b10110 z
#800000
01
#805000
b101 e
1&
b1011001100000001 (
b1011001100000001 _
b10100 )
b10100 ^
b10110011000000001011001100000001 W
11
#806000
b10111 z
#810000
01
#815000
b11 e
b100110011 /
b100110011 X
b1 g
b10110 d
b100110011 +
b100110011 C
b100110011 Z
b1011001100000000 (
b1011001100000000 _
b10101 )
b10101 ^
1&
11
#816000
b11000 z
#820000
01
#825000
b100 e
0&
b10110011000000101011001100000011 !
b10110011000000101011001100000011 A
b10110011000000101011001100000011 2
11
#826000
b11001 z
#830000
01
#835000
b101 e
1&
b1011001100000011 (
b1011001100000011 _
b10110 )
b10110 ^
b10110011000000101011001100000011 W
b1011001100000000 "
b1011001100000000 G
b1011001100000000 <
11
#836000
b11010 z
#840000
01
#845000
b1010 e
b0 g
b11000 d
b100110100 +
b100110100 C
b100110100 Z
b1011001100000010 (
b1011001100000010 _
b10111 )
b10111 ^
1&
bx "
bx G
bx <
11
#846000
b11011 z
#850000
01
#855000
b1011 e
0&
11
#856000
b11100 z
#860000
01
#865000
b0 e
0,
b1011001100000010 "
b1011001100000010 G
b1011001100000010 <
11
#866000
19
05
13
b1 4
b1 B
b1 ;
b1 F
b110010 7
b110010 D
b110010000 8
b110010000 E
0t
1r
b1 s
b1 w
b110010 v
b110010000 x
b11000100111010101110010011100110111010000100000011000100110000101101110011010110011001101011011001100100011000101011101 n
b1011001100000000 l
b1011001100000000 m
b100101 ?
b100101 @
b110001001110101011100100111001101110100010111110110000101101100011011000011101000100000011000100111010101110011011110010010000001100100011001010110000101110011011100110110010101110010011101000110010101100100 j
b11101 z
#870000
01
#875000
b11 e
b1 '
b1 `
b110010000 /
b110010000 X
b110010 ]
b110010 d
b110010000 +
b110010000 C
b110010000 Z
1,
b0 U
b1 [
b1 g
b1 h
0V
1T
11
#876000
b0 z
b11001000 {
09
#880000
01
#885000
b100 e
b10101010101010101011101110111011 !
b10101010101010101011101110111011 A
b10101010101010101011101110111011 2
b1011000100000010 "
b1011000100000010 G
b1011000100000010 <
11
#886000
b1 z
#890000
01
#895000
b101 e
1&
b1011101110111011 (
b1011101110111011 _
b110010 )
b110010 ^
b10101010101010101011101110111011 W
11
#896000
b10 z
#900000
01
#905000
b1010 e
b0 g
b110100 d
b110010001 +
b110010001 C
b110010001 Z
b1010101010101010 (
b1010101010101010 _
b110011 )
b110011 ^
1&
bx "
bx G
bx <
11
#906000
b11 z
#910000
01
#915000
b1011 e
b10 [
0&
11
#916000
b100 z
#920000
01
#925000
b0 e
0,
b1010101010101010 "
b1010101010101010 G
b1010101010101010 <
11
#926000
19
15
03
b0 4
b0 B
16
b10 ;
b10 F
b1001011000 7
b1001011000 D
b10100 8
b10100 E
1t
0r
b0 s
1u
b10 w
b1001011000 v
b10100 x
b100111 ?
b100111 @
b1100001011101010111010001101111010111110110100101101110011000110011101000100000011000100110000101101110011010110011000101011011001101010011000101011101 n
b1010101010101010 l
b1010101010101010 m
b101 z
#930000
01
#935000
b110 e
b10100 )
b10100 ^
b0 '
b0 `
b10100 ]
b10100 d
b1001011000 +
b1001011000 C
b1001011000 Z
1,
b0 [
b10 g
b10 h
1V
0T
1\
11
#936000
b0 z
b111110100 {
09
#940000
01
#945000
b111 e
b1011000000000001 "
b1011000000000001 G
b1011000000000001 <
11
#946000
b1 z
#950000
01
#955000
b1000 e
b10101 )
b10101 ^
b1011000000000001 c
11
#956000
b10 z
#960000
01
#965000
b1001 e
b1011000000000000 "
b1011000000000000 G
b1011000000000000 <
11
#966000
b11 z
#970000
01
#975000
b110 e
b10110 )
b10110 ^
b1 g
b10110 d
b1001011001 +
b1001011001 C
b1001011001 Z
1-
b10110000000000001011000000000001 .
b10110000000000001011000000000001 Y
b1001011000 /
b1001011000 X
11
#976000
b100 z
#980000
01
#985000
b111 e
0-
bx !
bx A
bx 2
b1011000000000011 "
b1011000000000011 G
b1011000000000011 <
11
#986000
b101 z
#990000
01
#995000
b1000 e
b10111 )
b10111 ^
b1011000000000011 c
b10110000000000001011000000000001 !
b10110000000000001011000000000001 A
b10110000000000001011000000000001 2
11
#996000
b110 z
#1000000
01
#1005000
b1001 e
b1011000000000010 "
b1011000000000010 G
b1011000000000010 <
11
#1006000
b111 z
#1010000
01
#1015000
b1010 e
b0 g
b11000 d
b1001011010 +
b1001011010 C
b1001011010 Z
1-
b10110000000000101011000000000011 .
b10110000000000101011000000000011 Y
b1001011001 /
b1001011001 X
11
#1016000
b1000 z
#1020000
01
#1025000
b110 e
b10100 )
b10100 ^
b10 g
b10100 d
b1 '
b1 `
b1 [
b1 U
0-
bx !
bx A
bx 2
11
#1026000
b1001 z
#1030000
01
#1035000
b111 e
b1011000100000001 "
b1011000100000001 G
b1011000100000001 <
b10110000000000101011000000000011 !
b10110000000000101011000000000011 A
b10110000000000101011000000000011 2
11
#1036000
b1010 z
#1040000
01
#1045000
b1000 e
b10101 )
b10101 ^
b1011000100000001 c
11
#1046000
b1011 z
#1050000
01
#1055000
b1001 e
b1011000100000000 "
b1011000100000000 G
b1011000100000000 <
11
#1056000
b1100 z
#1060000
01
#1065000
b110 e
b10110 )
b10110 ^
b1 g
b10110 d
b1001011011 +
b1001011011 C
b1001011011 Z
1-
b10110001000000001011000100000001 .
b10110001000000001011000100000001 Y
b1001011010 /
b1001011010 X
11
#1066000
b1101 z
#1070000
01
#1075000
b111 e
0-
b1011000100000011 "
b1011000100000011 G
b1011000100000011 <
bx !
bx A
bx 2
11
#1076000
b1110 z
#1080000
01
#1085000
b1000 e
b10111 )
b10111 ^
b1011000100000011 c
b10110001000000001011000100000001 !
b10110001000000001011000100000001 A
b10110001000000001011000100000001 2
11
#1086000
b1111 z
#1090000
01
#1095000
b1001 e
b1011000100000010 "
b1011000100000010 G
b1011000100000010 <
11
#1096000
b10000 z
#1100000
01
#1105000
b1010 e
b0 g
b11000 d
b1001011100 +
b1001011100 C
b1001011100 Z
1-
b10110001000000101011000100000011 .
b10110001000000101011000100000011 Y
b1001011011 /
b1001011011 X
11
#1106000
b10001 z
#1110000
01
#1115000
b110 e
b10100 )
b10100 ^
b10 g
b10100 d
b10 '
b10 `
b10 [
b10 U
0-
bx !
bx A
bx 2
11
#1116000
b10010 z
#1120000
01
#1125000
b111 e
b10110001000000101011000100000011 !
b10110001000000101011000100000011 A
b10110001000000101011000100000011 2
b1011001000000001 "
b1011001000000001 G
b1011001000000001 <
11
#1126000
b10011 z
#1130000
01
#1135000
b1000 e
b10101 )
b10101 ^
b1011001000000001 c
11
#1136000
b10100 z
#1140000
01
#1145000
b1001 e
b1011001000000000 "
b1011001000000000 G
b1011001000000000 <
11
#1146000
b10101 z
#1150000
01
#1155000
b110 e
b10110 )
b10110 ^
b1 g
b10110 d
b1001011101 +
b1001011101 C
b1001011101 Z
1-
b10110010000000001011001000000001 .
b10110010000000001011001000000001 Y
b1001011100 /
b1001011100 X
11
#1156000
b10110 z
#1160000
01
#1165000
b111 e
0-
bx !
bx A
bx 2
b1011001000000011 "
b1011001000000011 G
b1011001000000011 <
11
#1166000
b10111 z
#1170000
01
#1175000
b1000 e
b10111 )
b10111 ^
b1011001000000011 c
b10110010000000001011001000000001 !
b10110010000000001011001000000001 A
b10110010000000001011001000000001 2
11
#1176000
b11000 z
#1180000
01
#1185000
b1001 e
b1011001000000010 "
b1011001000000010 G
b1011001000000010 <
11
#1186000
b11001 z
#1190000
01
#1195000
b1010 e
b0 g
b11000 d
b1001011110 +
b1001011110 C
b1001011110 Z
1-
b10110010000000101011001000000011 .
b10110010000000101011001000000011 Y
b1001011101 /
b1001011101 X
11
#1196000
b11010 z
#1200000
01
#1205000
b110 e
b10100 )
b10100 ^
b10 g
b10100 d
b11 '
b11 `
b11 [
b11 U
0-
bx !
bx A
bx 2
11
#1206000
b11011 z
#1210000
01
#1215000
b111 e
b1011001100000001 "
b1011001100000001 G
b1011001100000001 <
b10110010000000101011001000000011 !
b10110010000000101011001000000011 A
b10110010000000101011001000000011 2
11
#1216000
b11100 z
#1220000
01
#1225000
b1000 e
b10101 )
b10101 ^
b1011001100000001 c
11
#1226000
b11101 z
#1230000
01
#1235000
b1001 e
b1011001100000000 "
b1011001100000000 G
b1011001100000000 <
11
#1236000
b11110 z
#1240000
01
#1245000
b110 e
b10110 )
b10110 ^
b1 g
b10110 d
b1001011111 +
b1001011111 C
b1001011111 Z
1-
b10110011000000001011001100000001 .
b10110011000000001011001100000001 Y
b1001011110 /
b1001011110 X
11
#1246000
b11111 z
#1250000
01
#1255000
b111 e
0-
b1011001100000011 "
b1011001100000011 G
b1011001100000011 <
bx !
bx A
bx 2
11
#1256000
b100000 z
#1260000
01
#1265000
b1000 e
b10111 )
b10111 ^
b1011001100000011 c
b10110011000000001011001100000001 !
b10110011000000001011001100000001 A
b10110011000000001011001100000001 2
11
#1266000
b100001 z
#1270000
01
#1275000
b1001 e
b1011001100000010 "
b1011001100000010 G
b1011001100000010 <
11
#1276000
b100010 z
#1280000
01
#1285000
b1010 e
b0 g
b11000 d
b1001100000 +
b1001100000 C
b1001100000 Z
1-
b10110011000000101011001100000011 .
b10110011000000101011001100000011 Y
b1001011111 /
b1001011111 X
11
#1286000
b100011 z
#1290000
01
#1295000
b1011 e
0-
bx !
bx A
bx 2
11
#1296000
b100100 z
#1300000
01
#1305000
b0 e
0,
b10110011000000101011001100000011 !
b10110011000000101011001100000011 A
b10110011000000101011001100000011 2
11
#1306000
b1110000011000010110001101101011001000000110001001110101011100100111001101110100001000000110001001100001011011100110101100110011001000000111011100110001 q
b10110011000000101011001100000011 o
b10110011000000101011001100000011 p
b110000 ?
b110000 @
b100010001011111010100000100000101000011010010110010000001100010011101010111001001110011011101000011101000100000011000100111010101110011011110010010000001100100011001010110000101110011011100110110010101110010011101000110010101100100 j
b100101 z
