Labs/Lab 10 Network Processor Integration and Refinements 2/Raymond/sim/src/sim/pkt_proc_integ_tb.vcd
$date
	Thu Mar 26 23:16:15 2026
$end
$version
	Icarus Verilog
$end
$timescale
	1ps
$end
$scope module pkt_proc_integ_tb $end
$var wire 32 ! dmem_dout [31:0] $end
$var wire 1 " pp_tx_start $end
$var wire 12 # pp_tail_wr_data [11:0] $end
$var wire 1 $ pp_tail_wr $end
$var wire 1 % pp_pkt_ack $end
$var wire 1 & pp_owns_port_b $end
$var wire 12 ' pp_head_wr_data [11:0] $end
$var wire 1 ( pp_head_wr $end
$var wire 1 ) pp_fifo_we $end
$var wire 64 * pp_fifo_wdata [63:0] $end
$var wire 2 + pp_fifo_mode [1:0] $end
$var wire 12 , pp_fifo_addr [11:0] $end
$var wire 1 - pp_active $end
$var wire 1 . out_wr $end
$var wire 64 / out_data [63:0] $end
$var wire 8 0 out_ctrl [7:0] $end
$var wire 1 1 in_rdy $end
$var wire 1 2 imem_we $end
$var wire 32 3 imem_din [31:0] $end
$var wire 10 4 imem_addr [9:0] $end
$var wire 1 5 fifo_tx_done $end
$var wire 12 6 fifo_tail_out [11:0] $end
$var wire 64 7 fifo_sram_rdata [63:0] $end
$var wire 1 8 fifo_pkt_ready $end
$var wire 12 9 fifo_pkt_end [11:0] $end
$var wire 1 : fifo_nearly_full $end
$var wire 12 ; fifo_head_out [11:0] $end
$var wire 1 < fifo_full $end
$var wire 1 = fifo_empty $end
$var wire 32 > entry_pc [31:0] $end
$var wire 1 ? dmem_we $end
$var wire 32 @ dmem_din [31:0] $end
$var wire 12 A dmem_addr [11:0] $end
$var wire 1 B cpu_start_out $end
$var wire 1 C cpu_rst_n_out $end
$var parameter 32 D CLK_PERIOD $end
$var parameter 32 E CTRL_WIDTH $end
$var parameter 32 F DATA_WIDTH $end
$var parameter 32 G DMEM_AW $end
$var parameter 32 H FIFO_AW $end
$var parameter 32 I IMEM_AW $end
$var reg 1 J clk $end
$var reg 1 K cpu_done $end
$var reg 32 L dmem_dout_r [31:0] $end
$var reg 8 M in_ctrl [7:0] $end
$var reg 64 N in_data [63:0] $end
$var reg 1 O in_wr $end
$var reg 1 P out_rdy $end
$var reg 1 Q rst_n $end
$var reg 32 R tmp_hi [31:0] $end
$var reg 32 S tmp_lo [31:0] $end
$var integer 32 T fail_count [31:0] $end
$var integer 32 U i [31:0] $end
$var integer 32 V pass_count [31:0] $end
$var integer 32 W test_num [31:0] $end
$var integer 32 X tx_cap_cnt [31:0] $end
$scope function cmd_word $end
$var reg 12 Y addr [11:0] $end
$var reg 4 Z cmd [3:0] $end
$var reg 16 [ cnt [15:0] $end
$var reg 32 \ param [31:0] $end
$upscope $end
$scope module u_fifo $end
$var wire 1 J clk $end
$var wire 12 ] head_ptr_out [11:0] $end
$var wire 8 ^ in_ctrl [7:0] $end
$var wire 64 _ in_data [63:0] $end
$var wire 1 1 in_rdy $end
$var wire 1 O in_wr $end
$var wire 64 ` out_data [63:0] $end
$var wire 1 P out_rdy $end
$var wire 12 a pkt_end_ptr [11:0] $end
$var wire 1 8 pkt_ready $end
$var wire 1 Q rst_n $end
$var wire 1 b rx_pkt_done $end
$var wire 64 c sram_rdata [63:0] $end
$var wire 12 d tail_ptr_out [11:0] $end
$var wire 12 e word_count [11:0] $end
$var wire 1 " tx_start $end
$var wire 1 $ tail_ptr_wr $end
$var wire 12 f tail_ptr_in [11:0] $end
$var wire 1 ) sram_we $end
$var wire 64 g sram_wdata [63:0] $end
$var wire 12 h sram_addr [11:0] $end
$var wire 64 i portb_dout [63:0] $end
$var wire 1 % pkt_ack $end
$var wire 1 . out_wr $end
$var wire 1 : nearly_full $end
$var wire 2 j mode [1:0] $end
$var wire 1 ( head_ptr_wr $end
$var wire 12 k head_ptr_in [11:0] $end
$var wire 1 < fifo_full $end
$var wire 1 = fifo_empty $end
$var parameter 32 l ADDR_WIDTH $end
$var parameter 32 m CTRL_WIDTH $end
$var parameter 32 n DATA_WIDTH $end
$var parameter 44 o DEPTH $end
$var parameter 2 p MODE_RX_FIFO $end
$var parameter 2 q MODE_SRAM $end
$var parameter 2 r MODE_TX_DRAIN $end
$var parameter 32 s NEARLY_FULL_THRESH $end
$var parameter 2 t TX_DONE $end
$var parameter 2 u TX_IDLE $end
$var parameter 2 v TX_READ $end
$var parameter 2 w TX_SEND $end
$var reg 12 x head_ptr [11:0] $end
$var reg 1 y in_wr_prev $end
$var reg 8 z out_ctrl [7:0] $end
$var reg 12 { pkt_end_r [11:0] $end
$var reg 1 | pkt_ready_r $end
$var reg 12 } porta_addr [11:0] $end
$var reg 64 ~ porta_din [63:0] $end
$var reg 1 !" porta_we $end
$var reg 12 "" portb_addr [11:0] $end
$var reg 64 #" portb_din [63:0] $end
$var reg 1 $" portb_we $end
$var reg 8 %" rx_ctrl_r [7:0] $end
$var reg 12 &" tail_ptr [11:0] $end
$var reg 1 5 tx_done $end
$var reg 12 '" tx_end [11:0] $end
$var reg 1 (" tx_first_word $end
$var reg 12 )" tx_ptr [11:0] $end
$var reg 2 *" tx_state [1:0] $end
$scope module u_bram $end
$var wire 12 +" addra [11:0] $end
$var wire 12 ," addrb [11:0] $end
$var wire 1 J clka $end
$var wire 1 J clkb $end
$var wire 64 -" dina [63:0] $end
$var wire 64 ." dinb [63:0] $end
$var wire 1 !" wea $end
$var wire 1 $" web $end
$var parameter 32 /" ADDR_WIDTH $end
$var parameter 32 0" DATA_WIDTH $end
$var reg 64 1" douta [63:0] $end
$var reg 64 2" doutb [63:0] $end
$upscope $end
$upscope $end
$scope module u_pp $end
$var wire 1 J clk $end
$var wire 1 K cpu_done $end
$var wire 32 3" dmem_dout [31:0] $end
$var wire 12 4" fifo_head_ptr [11:0] $end
$var wire 12 5" fifo_pkt_end [11:0] $end
$var wire 1 8 fifo_pkt_ready $end
$var wire 64 6" fifo_rdata [63:0] $end
$var wire 1 5 fifo_tx_done $end
$var wire 1 7" first_is_command $end
$var wire 1 & owns_port_b $end
$var wire 1 Q rst_n $end
$var wire 4 8" first_opcode [3:0] $end
$var wire 1 - active $end
$var parameter 4 9" CMD_CPU_START $end
$var parameter 4 :" CMD_LOAD_DMEM $end
$var parameter 4 ;" CMD_LOAD_IMEM $end
$var parameter 4 <" CMD_NOP $end
$var parameter 4 =" CMD_READBACK $end
$var parameter 4 >" CMD_SEND_PKT $end
$var parameter 32 ?" DMEM_ADDR_WIDTH $end
$var parameter 32 @" FIFO_ADDR_WIDTH $end
$var parameter 32 A" IMEM_ADDR_WIDTH $end
$var parameter 5 B" P_CPU_RUN $end
$var parameter 5 C" P_CPU_START $end
$var parameter 5 D" P_DECODE_CMD $end
$var parameter 5 E" P_FETCH_CMD $end
$var parameter 5 F" P_FETCH_WAIT $end
$var parameter 5 G" P_HDR_RD $end
$var parameter 5 H" P_HDR_SAVE $end
$var parameter 5 I" P_HDR_WAIT $end
$var parameter 5 J" P_IDLE $end
$var parameter 5 K" P_LOAD_RD $end
$var parameter 5 L" P_LOAD_UNPACK $end
$var parameter 5 M" P_LOAD_WAIT $end
$var parameter 5 N" P_LOAD_WR_HI $end
$var parameter 5 O" P_PASSTHRU $end
$var parameter 5 P" P_RB_RD_HI $end
$var parameter 5 Q" P_RB_RD_LO $end
$var parameter 5 R" P_RB_WAIT $end
$var parameter 5 S" P_RB_WR $end
$var parameter 5 T" P_SEND_DONE $end
$var parameter 5 U" P_SEND_HDR $end
$var parameter 5 V" P_SEND_SETUP $end
$var parameter 5 W" P_SEND_START $end
$var parameter 5 X" P_SEND_WAIT $end
$var parameter 16 Y" SOC_ETHERTYPE $end
$var reg 12 Z" base_addr [11:0] $end
$var reg 16 [" count [15:0] $end
$var reg 1 C cpu_rst_n $end
$var reg 1 B cpu_start $end
$var reg 64 \" data_r [63:0] $end
$var reg 12 ]" dmem_addr [11:0] $end
$var reg 32 ^" dmem_din [31:0] $end
$var reg 1 ? dmem_we $end
$var reg 32 _" entry_pc [31:0] $end
$var reg 12 `" fifo_addr [11:0] $end
$var reg 1 ( fifo_head_wr $end
$var reg 12 a" fifo_head_wr_data [11:0] $end
$var reg 2 b" fifo_mode [1:0] $end
$var reg 1 % fifo_pkt_ack $end
$var reg 1 $ fifo_tail_wr $end
$var reg 12 c" fifo_tail_wr_data [11:0] $end
$var reg 1 " fifo_tx_start $end
$var reg 64 d" fifo_wdata [63:0] $end
$var reg 1 ) fifo_we $end
$var reg 1 e" first_decode $end
$var reg 2 f" hdr_cnt [1:0] $end
$var reg 64 g" hdr_word0 [63:0] $end
$var reg 64 h" hdr_word1 [63:0] $end
$var reg 64 i" hdr_word2 [63:0] $end
$var reg 10 j" imem_addr [9:0] $end
$var reg 32 k" imem_din [31:0] $end
$var reg 1 2 imem_we $end
$var reg 12 l" pkt_end_r [11:0] $end
$var reg 12 m" pkt_head_r [11:0] $end
$var reg 1 n" pkt_is_network $end
$var reg 12 o" rb_base [11:0] $end
$var reg 32 p" rb_lo_r [31:0] $end
$var reg 12 q" rb_wr_ptr [11:0] $end
$var reg 12 r" rd_ptr [11:0] $end
$var reg 5 s" state [4:0] $end
$var reg 1 t" target $end
$upscope $end
$scope begin bp_block $end
$var integer 32 u" cyc [31:0] $end
$upscope $end
$scope begin t7_wait $end
$var integer 32 v" cyc [31:0] $end
$upscope $end
$scope task capture_tx $end
$var integer 32 w" cyc [31:0] $end
$var integer 32 x" max_cycles [31:0] $end
$upscope $end
$scope task check1 $end
$var reg 1 y" expected $end
$var reg 512 z" name [511:0] $end
$var reg 1 {" val $end
$upscope $end
$scope task check32 $end
$var reg 32 |" expected [31:0] $end
$var reg 512 }" name [511:0] $end
$var reg 32 ~" val [31:0] $end
$upscope $end
$scope task check64 $end
$var reg 64 !# expected [63:0] $end
$var reg 512 "# name [511:0] $end
$var reg 64 ## val [63:0] $end
$upscope $end
$scope task check8 $end
$var reg 8 $# expected [7:0] $end
$var reg 512 %# name [511:0] $end
$var reg 8 &# val [7:0] $end
$upscope $end
$scope task checkN $end
$var reg 512 '# name [511:0] $end
$var integer 32 (# expected [31:0] $end
$var integer 32 )# val [31:0] $end
$upscope $end
$scope task do_cpu_done $end
$upscope $end
$scope task dump_state $end
$upscope $end
$scope task rx_end $end
$upscope $end
$scope task rx_word $end
$var reg 8 *# ctrl [7:0] $end
$var reg 64 +# data [63:0] $end
$upscope $end
$scope task settle $end
$upscope $end
$scope task tick $end
$upscope $end
$scope task wait_complete $end
$var integer 32 ,# cyc [31:0] $end
$var integer 32 -# max_cycles [31:0] $end
$upscope $end
$scope task wait_cpu_running $end
$var integer 32 .# cyc [31:0] $end
$var integer 32 /# max_cycles [31:0] $end
$upscope $end
$upscope $end
$enddefinitions $end
$comment Show the parameter values. $end
$dumpall
b1000100010110101 Y"
b10000 X"
b1111 W"
b1110 V"
b10110 U"
b10001 T"
b1101 S"
b1100 R"
b1010 Q"
b1011 P"
b10101 O"
b111 N"
b101 M"
b110 L"
b100 K"
b0 J"
b10011 I"
b10100 H"
b10010 G"
b10 F"
b1 E"
b11 D"
b1000 C"
b1001 B"
b1010 A"
b1100 @"
b1100 ?"
b101 >"
b100 ="
b0 <"
b1 ;"
b10 :"
b11 9"
b1000000 0"
b1100 /"
b10 w
b1 v
b0 u
b11 t
b100 s
b10 r
b1 q
b0 p
b1000000000000 o
b1000000 n
b1000 m
b1100 l
b1010 I
b1100 H
b1100 G
b1000000 F
b1000 E
b1010 D
$end
#0
$dumpvars
bx /#
bx .#
bx -#
bx ,#
bx +#
bx *#
bx )#
bx (#
bx '#
bx &#
bx %#
bx $#
bx ##
bx "#
bx !#
bx ~"
bx }"
bx |"
x{"
bx z"
xy"
bx x"
bx w"
bx v"
bx u"
0t"
b0 s"
b0 r"
b0 q"
b0 p"
b0 o"
0n"
b0 m"
b0 l"
b0 k"
b0 j"
b0 i"
b0 h"
b0 g"
b0 f"
0e"
b0 d"
b0 c"
b0 b"
b0 a"
b0 `"
b0 _"
b0 ^"
b0 ]"
b0 \"
b0 ["
b0 Z"
bx 8"
x7"
bx 6"
b0 5"
b0 4"
bx 3"
bx 2"
bx 1"
b0 ."
b0 -"
b0 ,"
b0 +"
b0 *"
b0 )"
0("
b0 '"
b0 &"
b0 %"
0$"
b0 #"
b0 ""
0!"
b0 ~
b0 }
0|
b0 {
b0 z
0y
b0 x
b0 k
b0 j
bx i
b0 h
b0 g
b0 f
b0 e
b0 d
bx c
0b
b0 a
bx `
b0 _
b0 ^
b0 ]
bx \
bx [
bx Z
bx Y
bx X
b0 W
b0 V
bx U
b0 T
bx S
bx R
0Q
1P
0O
b0 N
b0 M
bx L
0K
0J
0C
0B
b0 A
b0 @
0?
b0 >
1=
0<
b0 ;
0:
b0 9
08
bx 7
b0 6
05
b0 4
b0 3
02
11
b0 0
bx /
0.
0-
b0 ,
b0 +
b0 *
0)
0(
b0 '
0&
0%
0$
b0 #
0"
bx !
$end
#5000
1J
#10000
0J
#15000
1J
#20000
0J
#25000
1J
#26000
1Q
#30000
0J
#35000
1J
#36000
1!"
b1000000000000000000000000001000000000000000000000000000000000 ~
b1000000000000000000000000001000000000000000000000000000000000 -"
1O
b100 M
b100 ^
b1000000000000000000000000001000000000000000000000000000000000 N
b1000000000000000000000000001000000000000000000000000000000000 _
b100 *#
b1000000000000000000000000001000000000000000000000000000000000 +#
b1 Z
b0 Y
b10 [
b0 \
#40000
0J
#45000
b1 }
b1 +"
b100 %"
0=
b1 e
b1 6
b1 d
b1 &"
1y
1J
#46000
b1011101110111011101110111011101110101010101010101010101010101010 ~
b1011101110111011101110111011101110101010101010101010101010101010 -"
b0 M
b0 ^
b1011101110111011101110111011101110101010101010101010101010101010 N
b1011101110111011101110111011101110101010101010101010101010101010 _
b0 *#
b1011101110111011101110111011101110101010101010101010101010101010 +#
#50000
0J
#55000
17"
b10 }
b10 +"
b1 8"
b10 e
b10 6
b10 d
b10 &"
b1000000000000000000000000001000000000000000000000000000000000 7
b1000000000000000000000000001000000000000000000000000000000000 c
b1000000000000000000000000001000000000000000000000000000000000 6"
b1000000000000000000000000001000000000000000000000000000000000 /
b1000000000000000000000000001000000000000000000000000000000000 `
b1000000000000000000000000001000000000000000000000000000000000 i
b1000000000000000000000000001000000000000000000000000000000000 2"
1J
#56000
b1101110111011101110111011101110111001100110011001100110011001100 ~
b1101110111011101110111011101110111001100110011001100110011001100 -"
b1101110111011101110111011101110111001100110011001100110011001100 N
b1101110111011101110111011101110111001100110011001100110011001100 _
b1101110111011101110111011101110111001100110011001100110011001100 +#
#60000
0J
#65000
b11 }
b11 +"
b11 e
b11 6
b11 d
b11 &"
1J
#66000
b10000000000000000000000000001000000000000000000000000000000000 ~
b10000000000000000000000000001000000000000000000000000000000000 -"
b10000000000000000000000000001000000000000000000000000000000000 N
b10000000000000000000000000001000000000000000000000000000000000 _
b10000000000000000000000000001000000000000000000000000000000000 +#
b10 Z
#70000
0J
#75000
b100 }
b100 +"
b100 e
b100 6
b100 d
b100 &"
1J
#76000
b10001000100010001000100010001000010001000100010001000100010001 ~
b10001000100010001000100010001000010001000100010001000100010001 -"
b10001000100010001000100010001000010001000100010001000100010001 N
b10001000100010001000100010001000010001000100010001000100010001 _
b10001000100010001000100010001000010001000100010001000100010001 +#
#80000
0J
#85000
b101 }
b101 +"
b101 e
b101 6
b101 d
b101 &"
1J
#86000
b100010001000100010001000100010000110011001100110011001100110011 ~
b100010001000100010001000100010000110011001100110011001100110011 -"
b100010001000100010001000100010000110011001100110011001100110011 N
b100010001000100010001000100010000110011001100110011001100110011 _
b100010001000100010001000100010000110011001100110011001100110011 +#
#90000
0J
#95000
b110 }
b110 +"
b110 e
b110 6
b110 d
b110 &"
1J
#96000
b11000000000000000000000000000000000000000000000000000000000000 ~
b11000000000000000000000000000000000000000000000000000000000000 -"
b11000000000000000000000000000000000000000000000000000000000000 N
b11000000000000000000000000000000000000000000000000000000000000 _
b11000000000000000000000000000000000000000000000000000000000000 +#
b11 Z
b0 [
#100000
0J
#105000
b111 }
b111 +"
b111 e
b111 6
b111 d
b111 &"
1J
#106000
b100000100000000000000000000000100000000000000000000000000000000 ~
b100000100000000000000000000000100000000000000000000000000000000 -"
b100000100000000000000000000000100000000000000000000000000000000 N
b100000100000000000000000000000100000000000000000000000000000000 _
b100000100000000000000000000000100000000000000000000000000000000 +#
b100 Z
b100000000 Y
b1 [
#110000
0J
#115000
b1000 }
b1000 +"
b1000 e
b1000 6
b1000 d
b1000 &"
1J
#116000
b101000000000000000000000000000000000000000000000000000000000000 ~
b101000000000000000000000000000000000000000000000000000000000000 -"
b101000000000000000000000000000000000000000000000000000000000000 N
b101000000000000000000000000000000000000000000000000000000000000 _
b101000000000000000000000000000000000000000000000000000000000000 +#
b101 Z
b0 Y
b0 [
#120000
0J
#125000
b1001 }
b1001 +"
b1001 e
b1001 6
b1001 d
b1001 &"
1J
#126000
1b
0!"
b0 ~
b0 -"
b0 }
b0 +"
b0 N
b0 _
0O
#130000
0J
#135000
0b
0y
18
1|
b1000 9
b1000 a
b1000 5"
b1000 {
b1000000000000000000000000001000000000000000000000000000000000 1"
1J
#136000
b0 .#
b11001000 /#
#140000
0J
#145000
1&
01
1-
b1 s"
1e"
b1000 l"
1%
b1 +
b1 j
b1 b"
1J
#146000
b1 .#
#150000
0J
#155000
08
0|
b10 s"
0%
1J
#156000
b10 .#
#160000
0J
#165000
b11 s"
1J
#166000
b11 .#
#170000
0J
#175000
b100 s"
b10 ["
b1 r"
0e"
1J
#176000
b100 .#
#180000
0J
#185000
b1 ""
b1 ,"
b101 s"
b1 ,
b1 h
b1 `"
1J
#186000
b101 .#
#190000
0J
#195000
07"
b1011 8"
b110 s"
b1011101110111011101110111011101110101010101010101010101010101010 7
b1011101110111011101110111011101110101010101010101010101010101010 c
b1011101110111011101110111011101110101010101010101010101010101010 6"
b1011101110111011101110111011101110101010101010101010101010101010 /
b1011101110111011101110111011101110101010101010101010101010101010 `
b1011101110111011101110111011101110101010101010101010101010101010 i
b1011101110111011101110111011101110101010101010101010101010101010 2"
1J
#196000
b110 .#
#200000
0J
#205000
b111 s"
12
b10101010101010101010101010101010 3
b10101010101010101010101010101010 k"
b10 r"
b1011101110111011101110111011101110101010101010101010101010101010 \"
1J
#206000
b111 .#
#210000
0J
#215000
b100 s"
b1 ["
b10 Z"
b10111011101110111011101110111011 3
b10111011101110111011101110111011 k"
b1 4
b1 j"
12
1J
#216000
b1000 .#
#220000
0J
#225000
b10 ""
b10 ,"
b101 s"
b10 ,
b10 h
b10 `"
02
1J
#226000
b1001 .#
#230000
0J
#235000
b1101 8"
b110 s"
b1101110111011101110111011101110111001100110011001100110011001100 7
b1101110111011101110111011101110111001100110011001100110011001100 c
b1101110111011101110111011101110111001100110011001100110011001100 6"
b1101110111011101110111011101110111001100110011001100110011001100 /
b1101110111011101110111011101110111001100110011001100110011001100 `
b1101110111011101110111011101110111001100110011001100110011001100 i
b1101110111011101110111011101110111001100110011001100110011001100 2"
1J
#236000
b1010 .#
#240000
0J
#245000
b111 s"
12
b11001100110011001100110011001100 3
b11001100110011001100110011001100 k"
b10 4
b10 j"
b11 r"
b1101110111011101110111011101110111001100110011001100110011001100 \"
1J
#246000
b1011 .#
#250000
0J
#255000
b1 s"
b0 ["
b100 Z"
b11011101110111011101110111011101 3
b11011101110111011101110111011101 k"
b11 4
b11 j"
12
1J
#256000
b1100 .#
#260000
0J
#265000
b11 ""
b11 ,"
b10 s"
b11 ,
b11 h
b11 `"
02
1J
#266000
b1101 .#
#270000
0J
#275000
17"
b10 8"
b11 s"
b10000000000000000000000000001000000000000000000000000000000000 7
b10000000000000000000000000001000000000000000000000000000000000 c
b10000000000000000000000000001000000000000000000000000000000000 6"
b10000000000000000000000000001000000000000000000000000000000000 /
b10000000000000000000000000001000000000000000000000000000000000 `
b10000000000000000000000000001000000000000000000000000000000000 i
b10000000000000000000000000001000000000000000000000000000000000 2"
1J
#276000
b1110 .#
#280000
0J
#285000
b100 s"
1t"
b10 ["
b0 Z"
b100 r"
1J
#286000
b1111 .#
#290000
0J
#295000
b100 ""
b100 ,"
b101 s"
b100 ,
b100 h
b100 `"
1J
#296000
b10000 .#
#300000
0J
#305000
b110 s"
b10001000100010001000100010001000010001000100010001000100010001 7
b10001000100010001000100010001000010001000100010001000100010001 c
b10001000100010001000100010001000010001000100010001000100010001 6"
b10001000100010001000100010001000010001000100010001000100010001 /
b10001000100010001000100010001000010001000100010001000100010001 `
b10001000100010001000100010001000010001000100010001000100010001 i
b10001000100010001000100010001000010001000100010001000100010001 2"
1J
#306000
b10001 .#
#310000
0J
#315000
b111 s"
1?
b10001000100010001000100010001 @
b10001000100010001000100010001 ^"
b101 r"
b10001000100010001000100010001000010001000100010001000100010001 \"
1J
#316000
b10010 .#
#320000
0J
#325000
b100 s"
b1 ["
b10 Z"
b100010001000100010001000100010 @
b100010001000100010001000100010 ^"
b1 A
b1 ]"
1?
1J
#326000
b10011 .#
#330000
0J
#335000
b101 ""
b101 ,"
b101 s"
b101 ,
b101 h
b101 `"
0?
1J
#336000
b10100 .#
#340000
0J
#345000
b100 8"
b110 s"
b100010001000100010001000100010000110011001100110011001100110011 7
b100010001000100010001000100010000110011001100110011001100110011 c
b100010001000100010001000100010000110011001100110011001100110011 6"
b100010001000100010001000100010000110011001100110011001100110011 /
b100010001000100010001000100010000110011001100110011001100110011 `
b100010001000100010001000100010000110011001100110011001100110011 i
b100010001000100010001000100010000110011001100110011001100110011 2"
b100010001000100010001000100010 !
b100010001000100010001000100010 3"
b100010001000100010001000100010 L
1J
#346000
b10101 .#
#350000
0J
#355000
b111 s"
1?
b110011001100110011001100110011 @
b110011001100110011001100110011 ^"
b10 A
b10 ]"
b110 r"
b100010001000100010001000100010000110011001100110011001100110011 \"
1J
#356000
b10110 .#
#360000
0J
#365000
b1 s"
b0 ["
b100 Z"
b1000100010001000100010001000100 @
b1000100010001000100010001000100 ^"
b11 A
b11 ]"
1?
bx !
bx 3"
bx L
1J
#366000
b10111 .#
#370000
0J
#375000
b110 ""
b110 ,"
b10 s"
b110 ,
b110 h
b110 `"
0?
1J
#376000
b11000 .#
#380000
0J
#385000
b11 8"
b11 s"
b11000000000000000000000000000000000000000000000000000000000000 7
b11000000000000000000000000000000000000000000000000000000000000 c
b11000000000000000000000000000000000000000000000000000000000000 6"
b11000000000000000000000000000000000000000000000000000000000000 /
b11000000000000000000000000000000000000000000000000000000000000 `
b11000000000000000000000000000000000000000000000000000000000000 i
b11000000000000000000000000000000000000000000000000000000000000 2"
b1000100010001000100010001000100 !
b1000100010001000100010001000100 3"
b1000100010001000100010001000100 L
1J
#386000
b11001 .#
#390000
0J
#395000
b1000 s"
b111 r"
1J
#396000
b11010 .#
#400000
0J
#405000
0&
b1001 s"
1B
1C
1J
#406000
b1000 V
b1000 W
b1000100010011010100010101001101010110110011001101011101 }"
b1000100010001000100010001000100 |"
b1000100010001000100010001000100 ~"
b11011 .#
#410000
0J
#415000
0B
1J
#420000
0J
#425000
1J
#430000
0J
#435000
1J
#436000
1K
#440000
0J
#445000
1&
b1 s"
0C
1J
#446000
b0 w"
b0 X
b111110100 x"
0K
#450000
0J
#455000
b111 ""
b111 ,"
b10 s"
b111 ,
b111 h
b111 `"
1J
#456000
b1 w"
#460000
0J
#465000
b100 8"
b11 s"
b100000100000000000000000000000100000000000000000000000000000000 7
b100000100000000000000000000000100000000000000000000000000000000 c
b100000100000000000000000000000100000000000000000000000000000000 6"
b100000100000000000000000000000100000000000000000000000000000000 /
b100000100000000000000000000000100000000000000000000000000000000 `
b100000100000000000000000000000100000000000000000000000000000000 i
b100000100000000000000000000000100000000000000000000000000000000 2"
1J
#466000
b10 w"
#470000
0J
#475000
b1010 s"
b1 ["
b100000000 Z"
b1000 r"
1J
#476000
b11 w"
#480000
0J
#485000
b1011 s"
b100000000 A
b100000000 ]"
1J
#486000
b100 w"
#490000
0J
#495000
b1100 s"
b100000001 A
b100000001 ]"
b11111010110011100000000000000000 !
b11111010110011100000000000000000 3"
b11111010110011100000000000000000 L
1J
#496000
b101 w"
#500000
0J
#505000
b1101 s"
b11111010110011100000000000000000 p"
b11111010110011100000000000000001 !
b11111010110011100000000000000001 3"
b11111010110011100000000000000001 L
1J
#506000
b110 w"
#510000
0J
#515000
1$"
b1111101011001110000000000000000111111010110011100000000000000000 #"
b1111101011001110000000000000000111111010110011100000000000000000 ."
b0 ""
b0 ,"
b1 s"
b0 ["
b100000010 Z"
b1 q"
1)
b1111101011001110000000000000000111111010110011100000000000000000 *
b1111101011001110000000000000000111111010110011100000000000000000 g
b1111101011001110000000000000000111111010110011100000000000000000 d"
b0 ,
b0 h
b0 `"
1J
#516000
b111 w"
#520000
0J
#525000
0$"
b1000 ""
b1000 ,"
b1 8"
b10 s"
b1000 ,
b1000 h
b1000 `"
0)
b1000000000000000000000000001000000000000000000000000000000000 7
b1000000000000000000000000001000000000000000000000000000000000 c
b1000000000000000000000000001000000000000000000000000000000000 6"
b1000000000000000000000000001000000000000000000000000000000000 /
b1000000000000000000000000001000000000000000000000000000000000 `
b1000000000000000000000000001000000000000000000000000000000000 i
b1000000000000000000000000001000000000000000000000000000000000 2"
1J
#526000
b1000 w"
#530000
0J
#535000
b101 8"
b11 s"
b101000000000000000000000000000000000000000000000000000000000000 7
b101000000000000000000000000000000000000000000000000000000000000 c
b101000000000000000000000000000000000000000000000000000000000000 6"
b101000000000000000000000000000000000000000000000000000000000000 /
b101000000000000000000000000000000000000000000000000000000000000 `
b101000000000000000000000000000000000000000000000000000000000000 i
b101000000000000000000000000000000000000000000000000000000000000 2"
b1111101011001110000000000000000111111010110011100000000000000000 1"
1J
#536000
b1001 w"
#540000
0J
#545000
b1110 s"
b1001 r"
1J
#546000
b1010 w"
#550000
0J
#555000
b1111 s"
b10 +
b10 j
b10 b"
1$
b1 #
b1 f
b1 c"
1(
1J
#556000
b1011 w"
#560000
0J
#565000
0&
b10000 s"
1"
0$
0(
b1 e
b1 6
b1 d
b1 &"
1J
#566000
b1100 w"
#570000
0J
#575000
b0 #"
b0 ."
b0 ""
b0 ,"
b1 *"
1("
0"
1J
#576000
b1101 w"
#580000
0J
#585000
07"
b100 0
b100 z
b1111 8"
1.
b10 *"
b1111101011001110000000000000000111111010110011100000000000000000 7
b1111101011001110000000000000000111111010110011100000000000000000 c
b1111101011001110000000000000000111111010110011100000000000000000 6"
b1111101011001110000000000000000111111010110011100000000000000000 /
b1111101011001110000000000000000111111010110011100000000000000000 `
b1111101011001110000000000000000111111010110011100000000000000000 i
b1111101011001110000000000000000111111010110011100000000000000000 2"
1J
#586000
b1 X
b1110 w"
#590000
0J
#595000
b0 0
b0 z
0.
b11 *"
15
1=
b0 e
b1 ;
b1 ]
b1 4"
b1 x
1J
#596000
b1111 w"
#600000
0J
#605000
1&
b1111101011001110000000000000000111111010110011100000000000000000 #"
b1111101011001110000000000000000111111010110011100000000000000000 ."
b1000 ""
b1000 ,"
b10001 s"
b0 *"
05
1J
#606000
b10000 w"
#610000
0J
#615000
0&
17"
11
b101 8"
0-
b0 s"
b0 +
b0 j
b0 b"
b101000000000000000000000000000000000000000000000000000000000000 7
b101000000000000000000000000000000000000000000000000000000000000 c
b101000000000000000000000000000000000000000000000000000000000000 6"
b101000000000000000000000000000000000000000000000000000000000000 /
b101000000000000000000000000000000000000000000000000000000000000 `
b101000000000000000000000000000000000000000000000000000000000000 i
b101000000000000000000000000000000000000000000000000000000000000 2"
1J
#616000
b1101001011001000110110001100101001000000110000101100110011101000110010101110010001000000101010000110001 z"
0y"
0{"
b1010100010110000101101100110000010111010010000001100011011101000111001001101100001000000111000001100001011100110111001101110100011010000111001001101111011101010110011101101000 %#
b100 $#
b100 &#
b1010100010110000101101100110000010111010010000001100100011000010111010001100001 "#
b1111101011001110000000000000000111111010110011100000000000000000 !#
b1111101011001110000000000000000111111010110011100000000000000000 ##
b1100 V
b1100 W
b1010100010110000010000001110111011011110111001001100100001000000110001101101111011101010110111001110100 '#
b1 (#
b1 )#
b10001 w"
#620000
0J
#625000
1J
#630000
0J
#635000
1J
#640000
0J
#645000
1J
#650000
0J
#655000
1J
#660000
0J
#665000
1J
#666000
1!"
b11000000000000000000000000000000000000000000000000000000000000 ~
b11000000000000000000000000000000000000000000000000000000000000 -"
b1 }
b1 +"
1O
b1000000 M
b1000000 ^
b11000000000000000000000000000000000000000000000000000000000000 N
b11000000000000000000000000000000000000000000000000000000000000 _
b1000000 *#
b11000000000000000000000000000000000000000000000000000000000000 +#
b11 Z
#670000
0J
#675000
b10 }
b10 +"
1y
b1000000 %"
0=
b1 e
b10 6
b10 d
b10 &"
b1011101110111011101110111011101110101010101010101010101010101010 1"
1J
#676000
b100001000000000000000000000001000000000000000000000000000000000 ~
b100001000000000000000000000001000000000000000000000000000000000 -"
b0 M
b0 ^
b100001000000000000000000000001000000000000000000000000000000000 N
b100001000000000000000000000001000000000000000000000000000000000 _
b0 *#
b100001000000000000000000000001000000000000000000000000000000000 +#
b100 Z
b1000000000 Y
b10 [
#680000
0J
#685000
b11 }
b11 +"
b10 e
b11 6
b11 d
b11 &"
b1101110111011101110111011101110111001100110011001100110011001100 1"
1J
#686000
b101000000000000000000000000000000000000000000000000000000000000 ~
b101000000000000000000000000000000000000000000000000000000000000 -"
b101000000000000000000000000000000000000000000000000000000000000 N
b101000000000000000000000000000000000000000000000000000000000000 _
b101000000000000000000000000000000000000000000000000000000000000 +#
b101 Z
b0 Y
b0 [
#690000
0J
#695000
b100 }
b100 +"
b11 e
b100 6
b100 d
b100 &"
b10000000000000000000000000001000000000000000000000000000000000 1"
1J
#696000
1b
0!"
b0 ~
b0 -"
b0 }
b0 +"
b0 N
b0 _
0O
#700000
0J
