Labs/Lab 10 Network Processor Integration and Refinements 2/Raymond/sim/src/sim/pkt_proc_tb.vcd
$date
	Thu Mar 26 23:16:12 2026
$end
$version
	Icarus Verilog
$end
$timescale
	1ps
$end
$scope module pkt_proc_tb $end
$var wire 1 ! owns_port_b $end
$var wire 1 " imem_we $end
$var wire 32 # imem_din [31:0] $end
$var wire 10 $ imem_addr [9:0] $end
$var wire 64 % fifo_rdata [63:0] $end
$var wire 2 & fifo_mode [1:0] $end
$var wire 12 ' fifo_addr [11:0] $end
$var wire 32 ( entry_pc [31:0] $end
$var wire 1 ) dmem_we $end
$var wire 32 * dmem_din [31:0] $end
$var wire 12 + dmem_addr [11:0] $end
$var wire 1 , cpu_start_out $end
$var wire 1 - cpu_rst_n_out $end
$var wire 1 . active $end
$var parameter 32 / CLK_PERIOD $end
$var parameter 32 0 DMEM_AW $end
$var parameter 32 1 FIFO_AW $end
$var parameter 32 2 IMEM_AW $end
$var reg 1 3 clk $end
$var reg 1 4 cpu_done $end
$var reg 12 5 fifo_head_ptr [11:0] $end
$var reg 12 6 fifo_pkt_end [11:0] $end
$var reg 1 7 fifo_pkt_ready $end
$var reg 64 8 fifo_rdata_r [63:0] $end
$var reg 1 9 rst_n $end
$var integer 32 : fail_count [31:0] $end
$var integer 32 ; pass_count [31:0] $end
$var integer 32 < test_num [31:0] $end
$scope function cmd_word $end
$var reg 12 = addr [11:0] $end
$var reg 4 > cmd [3:0] $end
$var reg 16 ? cnt [15:0] $end
$var reg 32 @ param [31:0] $end
$upscope $end
$scope module u_dut $end
$var wire 1 3 clk $end
$var wire 1 4 cpu_done $end
$var wire 32 A dmem_dout [31:0] $end
$var wire 12 B fifo_head_ptr [11:0] $end
$var wire 12 C fifo_pkt_end [11:0] $end
$var wire 1 7 fifo_pkt_ready $end
$var wire 64 D fifo_rdata [63:0] $end
$var wire 1 E fifo_tx_done $end
$var wire 1 F first_is_command $end
$var wire 1 ! owns_port_b $end
$var wire 1 9 rst_n $end
$var wire 4 G first_opcode [3:0] $end
$var wire 1 . active $end
$var parameter 4 H CMD_CPU_START $end
$var parameter 4 I CMD_LOAD_DMEM $end
$var parameter 4 J CMD_LOAD_IMEM $end
$var parameter 4 K CMD_NOP $end
$var parameter 4 L CMD_READBACK $end
$var parameter 4 M CMD_SEND_PKT $end
$var parameter 32 N DMEM_ADDR_WIDTH $end
$var parameter 32 O FIFO_ADDR_WIDTH $end
$var parameter 32 P IMEM_ADDR_WIDTH $end
$var parameter 5 Q P_CPU_RUN $end
$var parameter 5 R P_CPU_START $end
$var parameter 5 S P_DECODE_CMD $end
$var parameter 5 T P_FETCH_CMD $end
$var parameter 5 U P_FETCH_WAIT $end
$var parameter 5 V P_HDR_RD $end
$var parameter 5 W P_HDR_SAVE $end
$var parameter 5 X P_HDR_WAIT $end
$var parameter 5 Y P_IDLE $end
$var parameter 5 Z P_LOAD_RD $end
$var parameter 5 [ P_LOAD_UNPACK $end
$var parameter 5 \ P_LOAD_WAIT $end
$var parameter 5 ] P_LOAD_WR_HI $end
$var parameter 5 ^ P_PASSTHRU $end
$var parameter 5 _ P_RB_RD_HI $end
$var parameter 5 ` P_RB_RD_LO $end
$var parameter 5 a P_RB_WAIT $end
$var parameter 5 b P_RB_WR $end
$var parameter 5 c P_SEND_DONE $end
$var parameter 5 d P_SEND_HDR $end
$var parameter 5 e P_SEND_SETUP $end
$var parameter 5 f P_SEND_START $end
$var parameter 5 g P_SEND_WAIT $end
$var parameter 16 h SOC_ETHERTYPE $end
$var reg 12 i base_addr [11:0] $end
$var reg 16 j count [15:0] $end
$var reg 1 - cpu_rst_n $end
$var reg 1 , cpu_start $end
$var reg 64 k data_r [63:0] $end
$var reg 12 l dmem_addr [11:0] $end
$var reg 32 m dmem_din [31:0] $end
$var reg 1 ) dmem_we $end
$var reg 32 n entry_pc [31:0] $end
$var reg 12 o fifo_addr [11:0] $end
$var reg 1 p fifo_head_wr $end
$var reg 12 q fifo_head_wr_data [11:0] $end
$var reg 2 r fifo_mode [1:0] $end
$var reg 1 s fifo_pkt_ack $end
$var reg 1 t fifo_tail_wr $end
$var reg 12 u fifo_tail_wr_data [11:0] $end
$var reg 1 v fifo_tx_start $end
$var reg 64 w fifo_wdata [63:0] $end
$var reg 1 x fifo_we $end
$var reg 1 y first_decode $end
$var reg 2 z hdr_cnt [1:0] $end
$var reg 64 { hdr_word0 [63:0] $end
$var reg 64 | hdr_word1 [63:0] $end
$var reg 64 } hdr_word2 [63:0] $end
$var reg 10 ~ imem_addr [9:0] $end
$var reg 32 !" imem_din [31:0] $end
$var reg 1 " imem_we $end
$var reg 12 "" pkt_end_r [11:0] $end
$var reg 12 #" pkt_head_r [11:0] $end
$var reg 1 $" pkt_is_network $end
$var reg 12 %" rb_base [11:0] $end
$var reg 32 &" rb_lo_r [31:0] $end
$var reg 12 '" rb_wr_ptr [11:0] $end
$var reg 12 (" rd_ptr [11:0] $end
$var reg 5 )" state [4:0] $end
$var reg 1 *" target $end
$upscope $end
$scope task check1 $end
$var reg 1 +" expected $end
$var reg 512 ," name [511:0] $end
$var reg 1 -" val $end
$upscope $end
$scope task check32 $end
$var reg 32 ." expected [31:0] $end
$var reg 512 /" name [511:0] $end
$var reg 32 0" val [31:0] $end
$upscope $end
$scope task tick $end
$upscope $end
$scope task wait_cpu_running $end
$var integer 32 1" cyc [31:0] $end
$var integer 32 2" max_cycles [31:0] $end
$upscope $end
$scope task wait_idle $end
$var integer 32 3" cyc [31:0] $end
$var integer 32 4" max_cycles [31:0] $end
$upscope $end
$upscope $end
$enddefinitions $end
$comment Show the parameter values. $end
$dumpall
b1000100010110101 h
b10000 g
b1111 f
b1110 e
b10110 d
b10001 c
b1101 b
b1100 a
b1010 `
b1011 _
b10101 ^
b111 ]
b101 \
b110 [
b100 Z
b0 Y
b10011 X
b10100 W
b10010 V
b10 U
b1 T
b11 S
b1000 R
b1001 Q
b1010 P
b1100 O
b1100 N
b101 M
b100 L
b0 K
b1 J
b10 I
b11 H
b1010 2
b1100 1
b1100 0
b1010 /
$end
#0
$dumpvars
bx 4"
bx 3"
bx 2"
bx 1"
bx 0"
bx /"
bx ."
x-"
bx ,"
x+"
0*"
b0 )"
b0 ("
b0 '"
b0 &"
b0 %"
0$"
b0 #"
b0 ""
b0 !"
b0 ~
b0 }
b0 |
b0 {
b0 z
0y
0x
b0 w
0v
b0 u
0t
0s
b0 r
b0 q
0p
b0 o
b0 n
b0 m
b0 l
b0 k
b0 j
b0 i
bx G
xF
zE
bx D
b0 C
b0 B
bz A
bx @
bx ?
bx >
bx =
b0 <
b0 ;
b0 :
09
bx 8
07
b0 6
b0 5
04
03
0.
0-
0,
b0 +
b0 *
0)
b0 (
b0 '
b0 &
bx %
b0 $
b0 #
0"
0!
$end
#5000
13
#10000
03
#15000
13
#20000
03
#25000
13
#26000
19
#30000
03
#35000
13
#36000
17
b10 6
b10 C
b1 >
b0 =
b10 ?
b0 @
#40000
03
#45000
1!
1F
b1 G
1.
b1 )"
1y
b10 ""
1s
b1 &
b1 r
b1000000000000000000000000001000000000000000000000000000000000 %
b1000000000000000000000000001000000000000000000000000000000000 8
b1000000000000000000000000001000000000000000000000000000000000 D
13
#46000
b0 3"
b1100100 4"
07
#50000
03
#55000
b10 )"
0s
13
#56000
b1 3"
#60000
03
#65000
b11 )"
13
#66000
b10 3"
#70000
03
#75000
b100 )"
b10 j
b1 ("
0y
13
#76000
b11 3"
#80000
03
#85000
b101 )"
b1 '
b1 o
13
#86000
b100 3"
#90000
03
#95000
0F
b1011 G
b110 )"
b1011101110111011101110111011101110101010101010101010101010101010 %
b1011101110111011101110111011101110101010101010101010101010101010 8
b1011101110111011101110111011101110101010101010101010101010101010 D
13
#96000
b101 3"
#100000
03
#105000
b111 )"
1"
b10101010101010101010101010101010 #
b10101010101010101010101010101010 !"
b10 ("
b1011101110111011101110111011101110101010101010101010101010101010 k
13
#106000
b110 3"
#110000
03
#115000
b100 )"
b1 j
b10 i
b10111011101110111011101110111011 #
b10111011101110111011101110111011 !"
b1 $
b1 ~
1"
13
#116000
b111 3"
#120000
03
#125000
b101 )"
b10 '
b10 o
0"
13
#126000
b1000 3"
#130000
03
#135000
b1101 G
b110 )"
b1101110111011101110111011101110111001100110011001100110011001100 %
b1101110111011101110111011101110111001100110011001100110011001100 8
b1101110111011101110111011101110111001100110011001100110011001100 D
13
#136000
b1001 3"
#140000
03
#145000
b111 )"
1"
b11001100110011001100110011001100 #
b11001100110011001100110011001100 !"
b10 $
b10 ~
b11 ("
b1101110111011101110111011101110111001100110011001100110011001100 k
13
#146000
b1010 3"
#150000
03
#155000
b1 )"
b0 j
b100 i
b11011101110111011101110111011101 #
b11011101110111011101110111011101 !"
b11 $
b11 ~
1"
13
#156000
b1011 3"
#160000
03
#165000
0!
0.
b0 )"
b0 &
b0 r
1p
b11 q
0"
13
#166000
17
b10 >
b100000000 =
b100 ;
b100 <
b1001001010011010100010101001101010110110011001101011101 /"
b11011101110111011101110111011101 ."
b11011101110111011101110111011101 0"
b1100 3"
#170000
03
#175000
1!
1F
b100 G
1.
b1 )"
1y
b0 ("
1s
b1 &
b1 r
0p
b100010001000100010001000100010000110011001100110011001100110011 %
b100010001000100010001000100010000110011001100110011001100110011 8
b100010001000100010001000100010000110011001100110011001100110011 D
13
#176000
b0 3"
07
#180000
03
#185000
b10 )"
b0 '
b0 o
0s
13
#186000
b1 3"
#190000
03
#195000
b10 G
b11 )"
b10000100000000000000000000001000000000000000000000000000000000 %
b10000100000000000000000000001000000000000000000000000000000000 8
b10000100000000000000000000001000000000000000000000000000000000 D
13
#196000
b10 3"
#200000
03
#205000
b100 )"
1*"
b10 j
b100000000 i
b1 ("
0y
13
#206000
b11 3"
#210000
03
#215000
b101 )"
b1 '
b1 o
13
#216000
b100 3"
#220000
03
#225000
b110 )"
b10001000100010001000100010001000010001000100010001000100010001 %
b10001000100010001000100010001000010001000100010001000100010001 8
b10001000100010001000100010001000010001000100010001000100010001 D
13
#226000
b101 3"
#230000
03
#235000
b111 )"
1)
b10001000100010001000100010001 *
b10001000100010001000100010001 m
b100000000 +
b100000000 l
b10 ("
b10001000100010001000100010001000010001000100010001000100010001 k
13
#236000
b110 3"
#240000
03
#245000
b100 )"
b1 j
b100000010 i
b100010001000100010001000100010 *
b100010001000100010001000100010 m
b100000001 +
b100000001 l
1)
13
#246000
b111 3"
#250000
03
#255000
b101 )"
b10 '
b10 o
0)
13
#256000
b1000 3"
#260000
03
#265000
b100 G
b110 )"
b100010001000100010001000100010000110011001100110011001100110011 %
b100010001000100010001000100010000110011001100110011001100110011 8
b100010001000100010001000100010000110011001100110011001100110011 D
13
#266000
b1001 3"
#270000
03
#275000
b111 )"
1)
b110011001100110011001100110011 *
b110011001100110011001100110011 m
b100000010 +
b100000010 l
b11 ("
b100010001000100010001000100010000110011001100110011001100110011 k
13
#276000
b1010 3"
#280000
03
#285000
b1 )"
b0 j
b100000100 i
b1000100010001000100010001000100 *
b1000100010001000100010001000100 m
b100000011 +
b100000011 l
1)
13
#286000
b1011 3"
#290000
03
#295000
0!
0.
b0 )"
b0 &
b0 r
1p
0)
13
#296000
17
b100 6
b100 C
b1000000 @
b11 >
b0 =
b0 ?
b1000 ;
b1000 <
b100010001001101010001010100110101011011001100000111100000110001001100000011001101011101 /"
b1000100010001000100010001000100 ."
b1000100010001000100010001000100 0"
b1100 3"
#300000
03
#305000
1!
b10 G
1.
b1 )"
1y
b100 ""
b0 ("
1s
b1 &
b1 r
0p
b10000000000000000000000000000100000000000000000000000000000000 %
b10000000000000000000000000000100000000000000000000000000000000 8
b10000000000000000000000000000100000000000000000000000000000000 D
13
#306000
b0 1"
b1100100 2"
07
#310000
03
#315000
b10 )"
b0 '
b0 o
0s
13
#316000
b1 1"
#320000
03
#325000
b1 G
b11 )"
b1000000000000000000000000000100000000000000000000000000000000 %
b1000000000000000000000000000100000000000000000000000000000000 8
b1000000000000000000000000000100000000000000000000000000000000 D
13
#326000
b10 1"
#330000
03
#335000
b100 )"
0*"
b1 j
b0 i
b1 ("
0y
13
#336000
b11 1"
#340000
03
#345000
b101 )"
b1 '
b1 o
13
#346000
b100 1"
#350000
03
#355000
0F
b1111 G
b110 )"
b1111111011101101111110101100111011011110101011011011111011101111 %
b1111111011101101111110101100111011011110101011011011111011101111 8
b1111111011101101111110101100111011011110101011011011111011101111 D
13
#356000
b101 1"
#360000
03
#365000
b111 )"
1"
b11011110101011011011111011101111 #
b11011110101011011011111011101111 !"
b0 $
b0 ~
b10 ("
b1111111011101101111110101100111011011110101011011011111011101111 k
13
#366000
b110 1"
#370000
03
#375000
b1 )"
b0 j
b10 i
b11111110111011011111101011001110 #
b11111110111011011111101011001110 !"
b1 $
b1 ~
1"
13
#376000
b111 1"
#380000
03
#385000
b10 )"
b10 '
b10 o
0"
13
#386000
b1000 1"
#390000
03
#395000
1F
b10 G
b11 )"
b10000000000000000000000000000100000000000000000000000000000000 %
b10000000000000000000000000000100000000000000000000000000000000 8
b10000000000000000000000000000100000000000000000000000000000000 D
13
#396000
b1001 1"
#400000
03
#405000
b100 )"
1*"
b1 j
b0 i
b11 ("
13
#406000
b1010 1"
#410000
03
#415000
b101 )"
b11 '
b11 o
13
#416000
b1011 1"
#420000
03
#425000
0F
b1100 G
b110 )"
b1100101011111110101110101011111010111010101011011111000000001101 %
b1100101011111110101110101011111010111010101011011111000000001101 8
b1100101011111110101110101011111010111010101011011111000000001101 D
13
#426000
b1100 1"
#430000
03
#435000
b111 )"
1)
b10111010101011011111000000001101 *
b10111010101011011111000000001101 m
b0 +
b0 l
b100 ("
b1100101011111110101110101011111010111010101011011111000000001101 k
13
#436000
b1101 1"
#440000
03
#445000
b1 )"
b0 j
b10 i
b11001010111111101011101010111110 *
b11001010111111101011101010111110 m
b1 +
b1 l
1)
13
#446000
b1110 1"
#450000
03
#455000
b10 )"
b100 '
b100 o
0)
13
#456000
b1111 1"
#460000
03
#465000
1F
b11 G
b11 )"
b11000000000000000000000000000000000000000000000000000001000000 %
b11000000000000000000000000000000000000000000000000000001000000 8
b11000000000000000000000000000000000000000000000000000001000000 D
13
#466000
b10000 1"
#470000
03
#475000
b1000 )"
b1000000 (
b1000000 n
b101 ("
13
#476000
b10001 1"
#480000
03
#485000
0!
b1001 )"
1,
1-
13
#486000
b1100101011011100111010001110010011110010101111101110000011000110011110100110000011110000011010000110000 /"
b1000000 ."
b1000000 0"
b1011 ;
b1011 <
b110001101110000011101010101111101110011011101000110000101110010011101000010000001110000011101010110110001110011011001010010000001001000010010010100011101001000 ,"
1+"
1-"
b10010 1"
#490000
03
#495000
0,
13
#496000
14
b1 :
b1000100010011010100010101001101010110110011000101011101001000000110110101110101011011000111010001101001 /"
b11001010111111101011101010111110 ."
b11001010111111101011101010111110 0"
b10010 ;
b10011 <
b11001100110100101100110011011110101111101101101011011110110010001100101001111010101001001011000001000000110010001110101011100100110100101101110011001110010000001000011010100000101010101011111010100100101010101001110 ,"
1+"
0-"
#500000
03
#505000
1!
b1 )"
0-
13
#506000
b0 3"
04
#510000
03
#515000
0!
0.
b0 )"
b0 &
b0 r
1p
b101 q
13
#516000
17
b10 6
b10 C
b10000 =
b1 ?
b1 >
b0 @
b10011 ;
b10100 <
b1101001011001000110110001100101001000000110000101100110011101000110010101110010001000000110001101110000011101010101111101100100011011110110111001100101 ,"
0+"
b1 3"
#520000
03
#525000
1!
1.
b1 )"
1y
b10 ""
b0 ("
1s
b1 &
b1 r
0p
13
#526000
b0 3"
07
#530000
03
#535000
b10 )"
b0 '
b0 o
0s
13
#536000
b1 3"
#540000
03
#545000
0F
b0 G
b11 )"
b0 %
b0 8
b0 D
13
#546000
b10 3"
#550000
03
#555000
b10010 )"
b1 ("
b1 z
1$"
0y
13
#556000
b11 3"
#560000
03
#565000
b10011 )"
b1 '
b1 o
13
#566000
b100 3"
#570000
03
#575000
1F
b1 G
b10100 )"
b1000000010000000000000000000100000000000000000000000000000000 %
b1000000010000000000000000000100000000000000000000000000000000 8
b1000000010000000000000000000100000000000000000000000000000000 D
13
#576000
b101 3"
#580000
03
#585000
b10010 )"
b10 z
b10 ("
b1000000010000000000000000000100000000000000000000000000000000 |
13
#586000
b110 3"
#590000
03
#595000
b10011 )"
b10 '
b10 o
13
#596000
b111 3"
#600000
03
#605000
0F
b1001 G
b10100 )"
b1001100110011001100110011001100110001000100010001000100010001000 %
b1001100110011001100110011001100110001000100010001000100010001000 8
b1001100110011001100110011001100110001000100010001000100010001000 D
13
#606000
b1000 3"
#610000
03
#615000
b10101 )"
b11 ("
b1001100110011001100110011001100110001000100010001000100010001000 }
13
#616000
b1001 3"
#620000
03
#625000
b1111 )"
b10 &
b10 r
1t
b11 u
1p
b0 q
13
#626000
b1010 3"
#630000
03
#635000
0!
b10000 )"
1v
0t
0p
13
#636000
b1011 3"
#640000
03
#645000
0v
13
#646000
b1100 3"
#650000
03
#655000
13
#656000
b1101 3"
#660000
03
#665000
13
#666000
b1110 3"
#670000
03
#675000
13
#676000
b1111 3"
#680000
03
#685000
13
#686000
b10000 3"
#690000
03
#695000
13
#696000
b10001 3"
#700000
03
#705000
13
#706000
b10010 3"
#710000
03
#715000
13
#716000
b10011 3"
#720000
03
#725000
13
#726000
b10100 3"
#730000
03
#735000
13
#736000
b10101 3"
#740000
03
#745000
13
#746000
b10110 3"
#750000
03
#755000
13
#756000
b10111 3"
#760000
03
#765000
13
#766000
b11000 3"
#770000
03
#775000
13
#776000
b11001 3"
#780000
03
#785000
13
#786000
b11010 3"
#790000
03
#795000
13
#796000
b11011 3"
#800000
03
#805000
13
#806000
b11100 3"
#810000
03
#815000
13
#816000
b11101 3"
#820000
03
#825000
13
#826000
b11110 3"
#830000
03
#835000
13
#836000
b11111 3"
#840000
03
#845000
13
#846000
b100000 3"
#850000
03
#855000
13
#856000
b100001 3"
#860000
03
#865000
13
#866000
b100010 3"
#870000
03
#875000
13
#876000
b100011 3"
#880000
03
#885000
13
#886000
b100100 3"
#890000
03
#895000
13
#896000
b100101 3"
#900000
03
#905000
13
#906000
b100110 3"
#910000
03
#915000
13
#916000
b100111 3"
#920000
03
#925000
13
#926000
b101000 3"
#930000
03
#935000
13
#936000
b101001 3"
#940000
03
#945000
13
#946000
b101010 3"
#950000
03
#955000
13
#956000
b101011 3"
#960000
03
#965000
13
#966000
b101100 3"
#970000
03
#975000
13
#976000
b101101 3"
#980000
03
#985000
13
#986000
b101110 3"
#990000
03
#995000
13
#996000
b101111 3"
#1000000
03
#1005000
13
#1006000
b110000 3"
#1010000
03
#1015000
13
#1016000
b110001 3"
#1020000
03
#1025000
13
#1026000
b110010 3"
#1030000
03
#1035000
13
#1036000
b110011 3"
#1040000
03
#1045000
13
#1046000
b110100 3"
#1050000
03
#1055000
13
#1056000
b110101 3"
#1060000
03
#1065000
13
#1066000
b110110 3"
#1070000
03
#1075000
13
#1076000
b110111 3"
#1080000
03
#1085000
13
#1086000
b111000 3"
#1090000
03
#1095000
13
#1096000
b111001 3"
#1100000
03
#1105000
13
#1106000
b111010 3"
#1110000
03
#1115000
13
#1116000
b111011 3"
#1120000
03
#1125000
13
#1126000
b111100 3"
#1130000
03
#1135000
13
#1136000
b111101 3"
#1140000
03
#1145000
13
#1146000
b111110 3"
#1150000
03
#1155000
13
#1156000
b111111 3"
#1160000
03
#1165000
13
#1166000
b1000000 3"
#1170000
03
#1175000
13
#1176000
b1000001 3"
#1180000
03
#1185000
13
#1186000
b1000010 3"
#1190000
03
#1195000
13
#1196000
b1000011 3"
#1200000
03
#1205000
13
#1206000
b1000100 3"
#1210000
03
#1215000
13
#1216000
b1000101 3"
#1220000
03
#1225000
13
#1226000
b1000110 3"
#1230000
03
#1235000
13
#1236000
b1000111 3"
#1240000
03
#1245000
13
#1246000
b1001000 3"
#1250000
03
#1255000
13
#1256000
b1001001 3"
#1260000
03
#1265000
13
#1266000
b1001010 3"
#1270000
03
#1275000
13
#1276000
b1001011 3"
#1280000
03
#1285000
13
#1286000
b1001100 3"
#1290000
03
#1295000
13
#1296000
b1001101 3"
#1300000
03
#1305000
13
#1306000
b1001110 3"
#1310000
03
#1315000
13
#1316000
b1001111 3"
#1320000
03
#1325000
13
#1326000
b1010000 3"
#1330000
03
#1335000
13
#1336000
b1010001 3"
#1340000
03
#1345000
13
#1346000
b1010010 3"
#1350000
03
#1355000
13
#1356000
b1010011 3"
#1360000
03
#1365000
13
#1366000
b1010100 3"
#1370000
03
#1375000
13
#1376000
b1010101 3"
#1380000
03
#1385000
13
#1386000
b1010110 3"
#1390000
03
#1395000
13
#1396000
b1010111 3"
#1400000
03
#1405000
13
#1406000
b1011000 3"
#1410000
03
#1415000
13
#1416000
b1011001 3"
#1420000
03
#1425000
13
#1426000
b1011010 3"
#1430000
03
#1435000
13
#1436000
b1011011 3"
#1440000
03
#1445000
13
#1446000
b1011100 3"
#1450000
03
#1455000
13
#1456000
b1011101 3"
#1460000
03
#1465000
13
#1466000
b1011110 3"
#1470000
03
#1475000
13
#1476000
b1011111 3"
#1480000
03
#1485000
13
#1486000
b1100000 3"
#1490000
03
#1495000
13
#1496000
b1100001 3"
#1500000
03
#1505000
13
#1506000
b1100010 3"
#1510000
03
#1515000
13
#1516000
b1100011 3"
#1520000
03
#1525000
13
#1526000
17
b1 6
b1 C
b100000000 =
b11 :
b10110 <
b100111001001111010100000010000001110011011010110110100101110000001110100010000001001001010011010100010101001101010110110011000001111000001100010011000101011101 /"
b10011001100110011001100110011001 ."
bx 0"
b1100100 3"
#1530000
03
#1535000
13
#1536000
b0 3"
07
#1540000
03
#1545000
13
#1546000
b1 3"
#1550000
03
#1555000
13
#1556000
b10 3"
#1560000
03
#1565000
13
#1566000
b11 3"
#1570000
03
#1575000
13
#1576000
b100 3"
#1580000
03
#1585000
13
#1586000
b101 3"
#1590000
03
#1595000
13
#1596000
b110 3"
#1600000
03
#1605000
13
#1606000
b111 3"
#1610000
03
#1615000
13
#1616000
b1000 3"
#1620000
03
#1625000
13
#1626000
b1001 3"
#1630000
03
#1635000
13
#1636000
b1010 3"
#1640000
03
#1645000
13
#1646000
b1011 3"
#1650000
03
#1655000
13
#1656000
b1100 3"
#1660000
03
#1665000
13
#1666000
b1101 3"
#1670000
03
#1675000
13
#1676000
b1110 3"
#1680000
03
#1685000
13
#1686000
b1111 3"
#1690000
03
#1695000
13
#1696000
b10000 3"
#1700000
03
#1705000
13
#1706000
b10001 3"
#1710000
03
#1715000
13
#1716000
b10010 3"
#1720000
03
#1725000
13
#1726000
b10011 3"
#1730000
03
#1735000
13
#1736000
b10100 3"
#1740000
03
#1745000
13
#1746000
b10101 3"
#1750000
03
#1755000
13
#1756000
b10110 3"
#1760000
03
#1765000
13
#1766000
b10111 3"
#1770000
03
#1775000
13
#1776000
b11000 3"
#1780000
03
#1785000
13
#1786000
b11001 3"
#1790000
03
#1795000
13
#1796000
b11010 3"
#1800000
03
#1805000
13
#1806000
b11011 3"
#1810000
03
#1815000
13
#1816000
b11100 3"
#1820000
03
#1825000
13
#1826000
b11101 3"
#1830000
03
#1835000
13
#1836000
b11110 3"
#1840000
03
#1845000
13
#1846000
b11111 3"
#1850000
03
#1855000
13
#1856000
b100000 3"
#1860000
03
#1865000
13
#1866000
b100001 3"
#1870000
03
#1875000
13
#1876000
b100010 3"
#1880000
03
#1885000
13
#1886000
b100011 3"
#1890000
03
#1895000
13
#1896000
b100100 3"
#1900000
03
#1905000
13
#1906000
b100101 3"
#1910000
03
#1915000
13
#1916000
b100110 3"
#1920000
03
#1925000
13
#1926000
b100111 3"
#1930000
03
#1935000
13
#1936000
b101000 3"
#1940000
03
#1945000
13
#1946000
b101001 3"
#1950000
03
#1955000
13
#1956000
b101010 3"
#1960000
03
#1965000
13
#1966000
b101011 3"
#1970000
03
#1975000
13
#1976000
b101100 3"
#1980000
03
#1985000
13
#1986000
b101101 3"
#1990000
03
#1995000
13
#1996000
b101110 3"
#2000000
03
#2005000
13
#2006000
b101111 3"
#2010000
03
#2015000
13
#2016000
b110000 3"
#2020000
03
#2025000
13
#2026000
b110001 3"
#2030000
03
#2035000
13
#2036000
b110010 3"
#2040000
03
#2045000
13
#2046000
b110011 3"
#2050000
03
#2055000
13
#2056000
b110100 3"
#2060000
03
#2065000
13
#2066000
b110101 3"
#2070000
03
#2075000
13
#2076000
b110110 3"
#2080000
03
#2085000
13
#2086000
b110111 3"
#2090000
03
#2095000
13
#2096000
b111000 3"
#2100000
03
#2105000
13
#2106000
b111001 3"
#2110000
03
#2115000
13
#2116000
b111010 3"
#2120000
03
#2125000
13
#2126000
b111011 3"
#2130000
03
#2135000
13
#2136000
b111100 3"
#2140000
03
#2145000
13
#2146000
b111101 3"
#2150000
03
#2155000
13
#2156000
b111110 3"
#2160000
03
#2165000
13
#2166000
b111111 3"
#2170000
03
#2175000
13
#2176000
b1000000 3"
#2180000
03
#2185000
13
#2186000
b1000001 3"
#2190000
03
#2195000
13
#2196000
b1000010 3"
#2200000
03
#2205000
13
#2206000
b1000011 3"
#2210000
03
#2215000
13
#2216000
b1000100 3"
#2220000
03
#2225000
13
#2226000
b1000101 3"
#2230000
03
#2235000
13
#2236000
b1000110 3"
#2240000
03
#2245000
13
#2246000
b1000111 3"
#2250000
03
#2255000
13
#2256000
b1001000 3"
#2260000
03
#2265000
13
#2266000
b1001001 3"
#2270000
03
#2275000
13
#2276000
b1001010 3"
#2280000
03
#2285000
13
#2286000
b1001011 3"
#2290000
03
#2295000
13
#2296000
b1001100 3"
#2300000
03
#2305000
13
#2306000
b1001101 3"
#2310000
03
#2315000
13
#2316000
b1001110 3"
#2320000
03
#2325000
13
#2326000
b1001111 3"
#2330000
03
#2335000
13
#2336000
b1010000 3"
#2340000
03
#2345000
13
#2346000
b1010001 3"
#2350000
03
#2355000
13
#2356000
b1010010 3"
#2360000
03
#2365000
13
#2366000
b1010011 3"
#2370000
03
#2375000
13
#2376000
b1010100 3"
#2380000
03
#2385000
13
#2386000
b1010101 3"
#2390000
03
#2395000
13
#2396000
b1010110 3"
#2400000
03
#2405000
13
#2406000
b1010111 3"
#2410000
03
#2415000
13
#2416000
b1011000 3"
#2420000
03
#2425000
13
#2426000
b1011001 3"
#2430000
03
#2435000
13
#2436000
b1011010 3"
#2440000
03
#2445000
13
#2446000
b1011011 3"
#2450000
03
#2455000
13
#2456000
b1011100 3"
#2460000
03
#2465000
13
#2466000
b1011101 3"
#2470000
03
#2475000
13
#2476000
b1011110 3"
#2480000
03
#2485000
13
#2486000
b1011111 3"
#2490000
03
#2495000
13
#2496000
b1100000 3"
#2500000
03
#2505000
13
#2506000
b1100001 3"
#2510000
03
#2515000
13
#2516000
b1100010 3"
#2520000
03
#2525000
13
#2526000
b1100011 3"
#2530000
03
#2535000
13
#2536000
17
b0 6
b0 C
b11 >
b0 =
b0 ?
b101 :
b11000 <
b100100101001101010001010100110101011011001100000111100000110001001100000011000101011101 /"
b1010101010101010101010101010101 ."
b1100100 3"
#2540000
03
#2545000
13
#2546000
b0 1"
07
#2550000
03
#2555000
13
#2556000
b1 1"
#2560000
03
#2565000
13
#2566000
b10 1"
#2570000
03
#2575000
13
#2576000
b11 1"
#2580000
03
#2585000
13
#2586000
b100 1"
#2590000
03
#2595000
13
#2596000
b101 1"
#2600000
03
#2605000
13
#2606000
b110 1"
#2610000
03
#2615000
13
#2616000
b111 1"
#2620000
03
#2625000
13
#2626000
b1000 1"
#2630000
03
#2635000
13
#2636000
b1001 1"
#2640000
03
#2645000
13
#2646000
b1010 1"
#2650000
03
#2655000
13
#2656000
b1011 1"
#2660000
03
#2665000
13
#2666000
b1100 1"
#2670000
03
#2675000
13
#2676000
b1101 1"
#2680000
03
#2685000
13
#2686000
b1110 1"
#2690000
03
#2695000
13
#2696000
b1111 1"
#2700000
03
#2705000
13
#2706000
b10000 1"
#2710000
03
#2715000
13
#2716000
b10001 1"
#2720000
03
#2725000
13
#2726000
b10010 1"
#2730000
03
#2735000
13
#2736000
b10011 1"
#2740000
03
#2745000
13
#2746000
b10100 1"
#2750000
03
#2755000
13
#2756000
b10101 1"
#2760000
03
#2765000
13
#2766000
b10110 1"
#2770000
03
#2775000
13
#2776000
b10111 1"
#2780000
03
#2785000
13
#2786000
b11000 1"
#2790000
03
#2795000
13
#2796000
b11001 1"
#2800000
03
#2805000
13
#2806000
b11010 1"
#2810000
03
#2815000
13
#2816000
b11011 1"
#2820000
03
#2825000
13
#2826000
b11100 1"
#2830000
03
#2835000
13
#2836000
b11101 1"
#2840000
03
#2845000
13
#2846000
b11110 1"
#2850000
03
#2855000
13
#2856000
b11111 1"
#2860000
03
#2865000
13
#2866000
b100000 1"
#2870000
03
#2875000
13
#2876000
b100001 1"
#2880000
03
#2885000
13
#2886000
b100010 1"
#2890000
03
#2895000
13
#2896000
b100011 1"
#2900000
03
#2905000
13
#2906000
b100100 1"
#2910000
03
#2915000
13
#2916000
b100101 1"
#2920000
03
#2925000
13
#2926000
b100110 1"
#2930000
03
#2935000
13
#2936000
b100111 1"
#2940000
03
#2945000
13
#2946000
b101000 1"
#2950000
03
#2955000
13
#2956000
b101001 1"
#2960000
03
#2965000
13
#2966000
b101010 1"
#2970000
03
#2975000
13
#2976000
b101011 1"
#2980000
03
#2985000
13
#2986000
b101100 1"
#2990000
03
#2995000
13
#2996000
b101101 1"
#3000000
03
#3005000
13
#3006000
b101110 1"
#3010000
03
#3015000
13
#3016000
b101111 1"
#3020000
03
#3025000
13
#3026000
b110000 1"
#3030000
03
#3035000
13
#3036000
b110001 1"
#3040000
03
#3045000
13
#3046000
b110010 1"
#3050000
03
#3055000
13
#3056000
b110011 1"
#3060000
03
#3065000
13
#3066000
b110100 1"
#3070000
03
#3075000
13
