lab7/Raymond/Verilog/bf16_lane_tb.vcd
$date
	Wed Feb 25 17:48:28 2026
$end
$version
	Icarus Verilog
$end
$timescale
	1ps
$end
$scope module bf16_lane_tb $end
$var wire 16 ! result [15:0] $end
$var wire 1 " output_ready $end
$var parameter 16 # BF16_0p0 $end
$var parameter 16 $ BF16_0p5 $end
$var parameter 16 % BF16_1p0 $end
$var parameter 16 & BF16_1p5 $end
$var parameter 16 ' BF16_2p0 $end
$var parameter 16 ( BF16_3p0 $end
$var parameter 16 ) BF16_4p0 $end
$var parameter 16 * BF16_6p0 $end
$var parameter 16 + BF16_7p0 $end
$var parameter 16 , BF16_N1p0 $end
$var parameter 16 - BF16_N2p0 $end
$var parameter 16 . BF16_N3p0 $end
$var parameter 16 / BF16_N6p0 $end
$var parameter 3 0 OP_ADD $end
$var parameter 3 1 OP_FMA $end
$var parameter 3 2 OP_MUL $end
$var reg 1 3 clk $end
$var reg 1 4 en $end
$var reg 3 5 op_mode [2:0] $end
$var reg 1 6 relu_en $end
$var reg 1 7 rst $end
$var reg 16 8 src_a [15:0] $end
$var reg 16 9 src_b [15:0] $end
$var reg 16 : src_c [15:0] $end
$var integer 32 ; fail_count [31:0] $end
$var integer 32 < pass_count [31:0] $end
$var integer 32 = test_num [31:0] $end
$scope module uut $end
$var wire 1 3 clk $end
$var wire 1 4 en $end
$var wire 1 > mul_zero $end
$var wire 3 ? op_mode [2:0] $end
$var wire 1 @ p_gte_c $end
$var wire 1 6 relu_en $end
$var wire 1 7 rst $end
$var wire 1 A s2_eff_sub $end
$var wire 16 B src_a [15:0] $end
$var wire 16 C src_b [15:0] $end
$var wire 16 D src_c [15:0] $end
$var wire 1 E sign_b $end
$var wire 1 F sign_a $end
$var wire 8 G s2_sml_mant [7:0] $end
$var wire 8 H s2_exp_diff [7:0] $end
$var wire 1 I s2_big_sign $end
$var wire 8 J s2_big_mant [7:0] $end
$var wire 8 K s2_big_exp [7:0] $end
$var wire 36 L product_raw [35:0] $end
$var wire 1 M p_sign $end
$var wire 8 N p_mant [7:0] $end
$var wire 8 O p_exp [7:0] $end
$var wire 1 " output_ready $end
$var wire 16 P mul_in_b [15:0] $end
$var wire 7 Q mul_frac [6:0] $end
$var wire 8 R mul_exp [7:0] $end
$var wire 8 S mant_b [7:0] $end
$var wire 8 T mant_a [7:0] $end
$var wire 7 U frac_b [6:0] $end
$var wire 7 V frac_a [6:0] $end
$var wire 16 W fma_out [15:0] $end
$var wire 8 X exp_b [7:0] $end
$var wire 8 Y exp_a [7:0] $end
$var wire 1 Z c_sign $end
$var wire 8 [ c_mant [7:0] $end
$var wire 8 \ c_exp [7:0] $end
$var wire 8 ] aligned [7:0] $end
$var wire 10 ^ acc_sum [9:0] $end
$var wire 15 _ acc_norm [14:0] $end
$var wire 1 ` acc_is_zero $end
$var wire 16 a acc_in [15:0] $end
$var parameter 32 b PIPE_DEPTH $end
$var reg 16 c acc_s1 [15:0] $end
$var reg 16 d acc_s2 [15:0] $end
$var reg 16 e acc_s3 [15:0] $end
$var reg 10 f acc_sum_s3 [9:0] $end
$var reg 8 g big_exp_s2 [7:0] $end
$var reg 8 h big_exp_s3 [7:0] $end
$var reg 8 i big_mant_s2 [7:0] $end
$var reg 1 j big_sign_s2 $end
$var reg 1 k big_sign_s3 $end
$var reg 1 l eff_sub_s2 $end
$var reg 8 m exp_diff_s2 [7:0] $end
$var reg 9 n exp_sum_s1 [8:0] $end
$var reg 1 o mul_zero_s1 $end
$var reg 1 p mul_zero_s2 $end
$var reg 1 q mul_zero_s3 $end
$var reg 1 r relu_en_s1 $end
$var reg 1 s relu_en_s2 $end
$var reg 1 t relu_en_s3 $end
$var reg 16 u result [15:0] $end
$var reg 1 v sign_mul_s1 $end
$var reg 8 w sml_mant_s2 [7:0] $end
$var reg 4 x valid_pipe [3:0] $end
$scope function bf16_normalize $end
$var reg 8 y base_exp [7:0] $end
$var reg 10 z mant [9:0] $end
$upscope $end
$scope module bf16_mul_inst $end
$var wire 18 { A [17:0] $end
$var wire 18 | B [17:0] $end
$var wire 1 3 C $end
$var wire 1 } CE $end
$var wire 1 ~ GSR $end
$var wire 1 7 R $end
$var wire 36 !" p_in [35:0] $end
$var wire 1 "" p9_out $end
$var wire 1 #" p8_out $end
$var wire 1 $" p7_out $end
$var wire 1 %" p6_out $end
$var wire 1 &" p5_out $end
$var wire 1 '" p4_out $end
$var wire 1 (" p3_out $end
$var wire 1 )" p35_out $end
$var wire 1 *" p34_out $end
$var wire 1 +" p33_out $end
$var wire 1 ," p32_out $end
$var wire 1 -" p31_out $end
$var wire 1 ." p30_out $end
$var wire 1 /" p2_out $end
$var wire 1 0" p29_out $end
$var wire 1 1" p28_out $end
$var wire 1 2" p27_out $end
$var wire 1 3" p26_out $end
$var wire 1 4" p25_out $end
$var wire 1 5" p24_out $end
$var wire 1 6" p23_out $end
$var wire 1 7" p22_out $end
$var wire 1 8" p21_out $end
$var wire 1 9" p20_out $end
$var wire 1 :" p1_out $end
$var wire 1 ;" p19_out $end
$var wire 1 <" p18_out $end
$var wire 1 =" p17_out $end
$var wire 1 >" p16_out $end
$var wire 1 ?" p15_out $end
$var wire 1 @" p14_out $end
$var wire 1 A" p13_out $end
$var wire 1 B" p12_out $end
$var wire 1 C" p11_out $end
$var wire 1 D" p10_out $end
$var wire 1 E" p0_out $end
$var wire 36 F" b_in [35:0] $end
$var wire 36 G" a_in [35:0] $end
$var wire 36 H" P [35:0] $end
$var reg 36 I" p_out [35:0] $end
$upscope $end
$upscope $end
$scope task apply_and_check $end
$var reg 16 J" a [15:0] $end
$var reg 16 K" b [15:0] $end
$var reg 16 L" c [15:0] $end
$var reg 16 M" expected [15:0] $end
$var reg 3 N" op [2:0] $end
$var reg 1 O" relu $end
$var reg 384 P" test_name [383:0] $end
$upscope $end
$upscope $end
$enddefinitions $end
$comment Show the parameter values. $end
$dumpall
b100 b
b1 2
b10 1
b0 0
b1100000011000000 /
b1100000001000000 .
b1100000000000000 -
b1011111110000000 ,
b100000011100000 +
b100000011000000 *
b100000010000000 )
b100000001000000 (
b100000000000000 '
b11111111000000 &
b11111110000000 %
b11111100000000 $
b0 #
$end
#0
$dumpvars
bx P"
xO"
bx N"
bx M"
bx L"
bx K"
bx J"
b0 I"
b0 H"
b0 G"
b10000000 F"
0E"
0D"
0C"
0B"
0A"
0@"
0?"
0>"
0="
0<"
0;"
0:"
09"
08"
07"
06"
05"
04"
03"
02"
01"
00"
0/"
0."
0-"
0,"
0+"
0*"
0)"
0("
0'"
0&"
0%"
0$"
0#"
0""
b0 !"
1~
1}
b10000000 |
b0 {
bx z
bx y
bx x
bx w
xv
bx u
xt
xs
xr
xq
xp
xo
bx n
bx m
xl
xk
xj
bx i
bx h
bx g
bx f
bx e
bx d
bx c
b0 a
x`
b0 _
bx ^
bx ]
bx \
bx [
xZ
b0 Y
b1111111 X
bx W
b0 V
b0 U
b0 T
b10000000 S
bx R
b0 Q
b11111110000000 P
bx O
bx0000000 N
xM
b0 L
bx K
bx J
xI
bx H
bx G
0F
0E
b0 D
b0 C
b0 B
xA
x@
b0 ?
1>
b0 =
b0 <
b0 ;
b0 :
b0 9
b0 8
17
06
b0 5
04
03
x"
bx !
$end
#5000
1@
b0 K
b0 H
b10000000 J
b0 G
b0 O
b0 [
b0 R
0I
0A
0Z
b0 \
b10000000 N
0M
b0 ^
b0 ]
b0 W
b0 y
b0 z
0"
b0 c
b0 n
0o
0r
0v
b0 d
0s
0p
0l
b0 m
b0 w
0j
b0 i
b0 g
b0 e
0t
0q
0k
b0 h
1`
b0 f
b0 !
b0 u
b0 x
13
#10000
03
0~
#15000
13
#20000
03
#25000
13
#30000
03
#35000
07
13
#40000
03
#45000
b0 J
b0 N
b10000000 ^
1o
b10000000 i
b1 =
b100110101010101010011000011101000100000001100100010111000110000001000000010101000100000001100110010111000110000001000000011110100100000001101100010111000110000 P"
b100000011000000 M"
0O"
b1 N"
b0 L"
b100000001000000 K"
b100000000000000 J"
13
#50000
b11000000 F"
b110000000000000 !"
b10000000 G"
b11000000 |
b11000000 S
b10000000 X
b1000000 U
b10000000 {
b10000000 T
0>
b100000001000000 P
b10000000 Y
14
b1 5
b1 ?
b100000001000000 9
b100000001000000 C
b100000000000000 8
b100000000000000 B
03
#55000
b10000001 K
b10000001 H
b10000001 O
b10000001 R
b10000000 J
b10000000 z
b0 ^
b10000000 N
b1 x
0`
b10000000 f
1p
b0 i
b10000001 n
0o
13
#55100
b11000000 J
b11000000 N
b1000000 Q
b110000000000000 L
b110000000000000 H"
1@"
1A"
b110000000000000 I"
#60000
04
03
#65000
b11000000 ^
b0 z
0p
b10000001 m
b11000000 i
b10000001 g
1q
1`
b0 f
b10 x
13
#70000
03
#75000
b100000011000000 W
b100000011000000 _
b10000001 y
b11000000 z
b100 x
0q
b10000001 h
0`
b11000000 f
13
#80000
03
#85000
1"
b100000011000000 !
b100000011000000 u
b1000 x
13
#90000
b10 =
b100110101010101010011000011101000100000001100010010111000110101001000000010101000100000001100100010111000110000001000000011110100100000001100110010111000110000 P"
b100000001000000 M"
b100000000000000 K"
b11111111000000 J"
b1 <
03
#95000
0"
b0 x
13
#100000
b10000000 F"
b110000000000000 !"
b11000000 G"
b10000000 |
b10000000 S
b0 U
b11000000 {
b11000000 T
b100000000000000 P
b1111111 Y
b1000000 V
14
b100000000000000 9
b100000000000000 C
b11111111000000 8
b11111111000000 B
03
#105000
b10000000 K
b10000000 H
b10000000 O
b10000000 R
b10000000 n
b1 x
13
#110000
04
03
#115000
b10 x
b10000000 m
b10000000 g
13
#120000
03
#125000
b100000001000000 W
b100000001000000 _
b10000000 y
b10000000 h
b100 x
13
#130000
03
#135000
1"
b1000 x
b100000001000000 !
b100000001000000 u
13
#140000
b11 =
b1001101010101010100110000111010001000000010110100110010001011100011000000100000001010100010000000110011001011100011000000100000001111010010000000101101001101100010111000110000 P"
b1100000011000000 M"
b100000001000000 K"
b1100000000000000 J"
b10 <
03
#145000
0"
b0 x
13
#150000
b11000000 F"
b110000000000000 !"
b10000000 G"
b11000000 |
b11000000 S
b1000000 U
b10000000 {
b10000000 T
b100000001000000 P
1F
b10000000 Y
b0 V
14
b100000001000000 9
b100000001000000 C
b1100000000000000 8
b1100000000000000 B
03
#155000
b10000001 K
b10000001 H
b10000001 O
b10000001 R
1I
1A
1M
b1 x
b10000001 n
1v
13
#160000
04
03
#165000
1l
b10000001 m
1j
b10000001 g
b10 x
13
#170000
03
#175000
b1100000011000000 W
b100000011000000 _
b10000001 y
b100 x
1k
b10000001 h
13
#180000
03
#185000
1"
b1100000011000000 !
b1100000011000000 u
b1000 x
13
#190000
b100 =
b100110101010101010011000011101000100000001100010010111000110000001000000010101000100000001100010010111000110000001000000011110100100000001100010010111000110000 P"
b11111110000000 M"
b11111110000000 K"
b11111110000000 J"
b11 <
03
#195000
0"
b0 x
13
#200000
b100000000000000 !"
b10000000 F"
b10000000 |
b10000000 S
b1111111 X
b0 U
b11111110000000 P
0F
b1111111 Y
14
b11111110000000 9
b11111110000000 C
b11111110000000 8
b11111110000000 B
03
#205000
b1111111 K
b1111111 H
b1111111 O
b1111111 R
0I
0A
0M
b1111111 n
0v
b1 x
13
#205100
b10000000 J
b10000000 N
b0 Q
b100000000000000 L
b100000000000000 H"
0A"
b100000000000000 I"
#210000
04
03
#215000
b10000000 ^
b10 x
0l
b1111111 m
0j
b10000000 i
b1111111 g
13
#220000
03
#225000
b11111110000000 W
b11111110000000 _
b1111111 y
b10000000 z
0k
b1111111 h
b10000000 f
b100 x
13
#230000
03
#235000
1"
b1000 x
b11111110000000 !
b11111110000000 u
13
#240000
b101 =
b100110101010101010011000011101000100000001100000010111000110000001000000010101000100000001100110010111000110000001000000011110100100000001100000010111000110000 P"
b0 M"
b100000001000000 K"
b0 J"
b100 <
03
#245000
0"
b0 x
13
#250000
b11000000 F"
b0 !"
b0 G"
b11000000 |
b11000000 S
b10000000 X
b1000000 U
b0 {
b0 T
1>
b100000001000000 P
b0 Y
14
b100000001000000 9
b100000001000000 C
b0 8
b0 B
03
#255000
b1 R
b0 K
b0 H
b0 J
b0 O
b0 N
b1 x
b1 n
1o
13
#255100
b0 L
b0 H"
0@"
b0 I"
#260000
04
03
#265000
b0 ^
1p
b0 m
b0 i
b0 g
b10 x
13
#270000
03
#275000
b0 W
b0 _
b0 y
b0 z
b100 x
1q
b0 h
1`
b0 f
13
#280000
03
#285000
1"
b0 !
b0 u
b1000 x
13
#290000
b110 =
b100000101000100010001000011101000100000001100010010111000110000001000000010101100100000001100100010111000110000001000000011110100100000001100110010111000110000 P"
b100000001000000 M"
b0 N"
b100000000000000 K"
b11111110000000 J"
b101 <
03
#295000
0"
b0 x
13
#300000
b10000000 F"
b100000000000000 !"
b10000000 G"
b10000000 |
b10000000 S
b1111111 X
b0 U
b10000000 {
b10000000 T
0>
b100000000000000 a
b11111110000000 P
b1111111 Y
14
b0 5
b0 ?
b100000000000000 9
b100000000000000 C
b11111110000000 8
b11111110000000 B
03
#305000
b10000000 G
b10000000 [
b1111111 R
0@
b10000000 K
b1 H
b10000000 J
b10000000 \
b1111111 O
b10000000 N
b100000000000000 c
b1111111 n
0o
b1 x
13
#305100
b100000000000000 L
b100000000000000 H"
1@"
b100000000000000 I"
#310000
04
03
#315000
b1000000 ]
b11000000 ^
b10 x
b100000000000000 d
0p
b1 m
b10000000 w
b10000000 i
b10000000 g
13
#320000
03
#325000
b100000001000000 W
b100000001000000 _
b10000000 y
b11000000 z
b100000000000000 e
0q
b10000000 h
0`
b11000000 f
b100 x
13
#330000
03
#335000
1"
b1000 x
b100000001000000 !
b100000001000000 u
13
#340000
b111 =
b100000101000100010001000011101000100000001100110010111000110000001000000010101100100000001010000010110100110001001011100011000000101001001000000011110100100000001100100010111000110000 P"
b100000000000000 M"
b1011111110000000 K"
b100000001000000 J"
b110 <
03
#345000
0"
b0 x
13
#350000
b110000000000000 !"
b11000000 G"
b11000000 {
b11000000 T
b1011111110000000 a
b10000000 Y
b1000000 V
14
b1011111110000000 9
b1011111110000000 C
b100000001000000 8
b100000001000000 B
03
#355000
1@
b10000000 O
0I
1A
b10000000 K
b1 H
b10000000 R
1Z
b1111111 \
b1 x
b1011111110000000 c
b10000000 n
13
#355100
b11000000 J
b11000000 N
b1000000 Q
b110000000000000 L
b110000000000000 H"
1A"
b110000000000000 I"
#360000
04
03
#365000
b10000000 ^
b1011111110000000 d
1l
b11000000 i
b10 x
13
#370000
03
#375000
b100000000000000 W
b100000000000000 _
b10000000 z
b100 x
b1011111110000000 e
b10000000 f
13
#380000
03
#385000
1"
b100000000000000 !
b100000000000000 u
b1000 x
13
#390000
b1000 =
b1000001010001000100010000111010001000000010110100110001001011100011000000100000001010110010000000101000001011010011001000101110001100000010100100100000001111010010000000101101001100110010111000110000 P"
b1100000001000000 M"
b1100000000000000 K"
b1011111110000000 J"
b111 <
03
#395000
0"
b0 x
13
#400000
b100000000000000 !"
b10000000 G"
b10000000 {
b10000000 T
b1100000000000000 a
1F
b1111111 Y
b0 V
14
b1100000000000000 9
b1100000000000000 C
b1011111110000000 8
b1011111110000000 B
03
#405000
b10000000 J
b11000000 G
0@
b10000000 K
b1111111 O
b1 H
b1111111 R
1I
0A
b10000000 \
1M
b1100000000000000 c
b1111111 n
1v
b1 x
13
#405100
b10000000 G
b10000000 N
b0 Q
b100000000000000 L
b100000000000000 H"
0A"
b100000000000000 I"
#410000
04
03
#415000
b11000000 ^
b10 x
b1100000000000000 d
0l
1j
b10000000 i
13
#420000
03
#425000
b1100000001000000 W
b100000001000000 _
b11000000 z
b1100000000000000 e
1k
b11000000 f
b100 x
13
#430000
03
#435000
1"
b1000 x
b1100000001000000 !
b1100000001000000 u
13
#440000
b1001 =
b100000101000100010001000011101000100000001100000010111000110000001000000010101100100000001100110010111000110000001000000011110100100000001100110010111000110000 P"
b100000001000000 M"
b100000001000000 K"
b0 J"
b1000 <
03
#445000
0"
b0 x
13
#450000
b0 !"
b0 G"
b0 {
b0 T
1>
b100000001000000 a
0F
b0 Y
14
b100000001000000 9
b100000001000000 C
b0 8
b0 B
03
#455000
b11000000 J
0I
b11000000 [
b0 R
b10000000 H
b0 G
0Z
b0 O
b0 N
0M
b1 x
b100000001000000 c
b0 n
1o
0v
13
#455100
b0 L
b0 H"
0@"
b0 I"
#460000
04
03
#465000
b0 ]
b11000000 ^
b100000001000000 d
1p
b10000000 m
b0 w
0j
b11000000 i
b10 x
13
#470000
03
#475000
b100000001000000 W
b100 x
b100000001000000 e
1q
0k
13
#480000
03
#485000
1"
b100000001000000 !
b100000001000000 u
b1000 x
13
#490000
b1010 =
b100000101000100010001000011101000100000001100110010111000110000001000000010101100100000001100000010111000110000001000000011110100100000001100110010111000110000 P"
b0 K"
b100000001000000 J"
b1001 <
03
#495000
0"
b0 x
13
#500000
b110000000000000 !"
b11000000 G"
b11000000 {
b11000000 T
0>
b0 a
b10000000 Y
b1000000 V
14
b0 9
b0 C
b100000001000000 8
b100000001000000 B
03
#505000
1@
b10000000 J
b10000000 O
b10000000 K
b10000000 H
b0 [
b10000000 R
b0 G
b0 \
b10000000 N
b0 c
b10000000 n
0o
b1 x
13
#505100
b11000000 J
b11000000 N
b1000000 Q
b110000000000000 L
b110000000000000 H"
1@"
1A"
b110000000000000 I"
#510000
04
03
#515000
b10 x
b0 d
0p
13
#520000
03
#525000
b0 e
0q
b100 x
13
#530000
03
#535000
1"
b1000 x
13
#540000
b1011 =
b100000101000100010001000011101000100000001100010010111000110000001000000010101100100000001010000010110100110001001011100011000000101001001000000011110100100000001100000010111000110000 P"
b0 M"
b1011111110000000 K"
b11111110000000 J"
b1010 <
03
#545000
0"
b0 x
13
#550000
b100000000000000 !"
b10000000 G"
b10000000 {
b10000000 T
b1011111110000000 a
b1111111 Y
b0 V
14
b1011111110000000 9
b1011111110000000 C
b11111110000000 8
b11111110000000 B
03
#555000
b1111111 K
b10000000 G
b1111111 O
1A
b10000000 [
b0 H
b1111111 R
1Z
b1111111 \
b1 x
b1011111110000000 c
b1111111 n
13
#555100
b10000000 J
b10000000 N
b0 Q
b100000000000000 L
b100000000000000 H"
0A"
b100000000000000 I"
#560000
04
03
#565000
b10000000 ]
b0 ^
b1011111110000000 d
1l
b0 m
b10000000 w
b10000000 i
b1111111 g
b10 x
13
#570000
03
#575000
b0 W
b0 _
b1111111 y
b0 z
b100 x
b1011111110000000 e
b1111111 h
1`
b0 f
13
#580000
03
#585000
1"
b0 !
b0 u
b1000 x
13
#590000
b1100 =
b10001100100110101000001001110100010000000110010001011100011000000101010001100110010111000110000001000000010101100100000001100010010111000110000001000000011110100100000001101110010111000110000 P"
b100000011100000 M"
b10 N"
b11111110000000 L"
b100000001000000 K"
b100000000000000 J"
b1011 <
03
#595000
0"
b0 x
13
#600000
b110000000000000 !"
b11000000 F"
b11000000 |
b11000000 S
b10000000 X
b1000000 U
b100000001000000 P
b11111110000000 a
b10000000 Y
14
b10 5
b10 ?
b11111110000000 :
b11111110000000 D
b100000001000000 9
b100000001000000 C
b100000000000000 8
b100000000000000 B
03
#605000
b10000001 K
b10 H
b10000001 O
0A
b10000001 R
0Z
b11111110000000 c
b10000001 n
b1 x
13
#605100
b11000000 J
b11000000 N
b1000000 Q
b110000000000000 L
b110000000000000 H"
1A"
b110000000000000 I"
#610000
04
03
#615000
b100000 ]
b11100000 ^
b10 x
b11111110000000 d
0l
b10 m
b11000000 i
b10000001 g
13
#620000
03
#625000
b100000011100000 W
b100000011100000 _
b10000001 y
b11100000 z
b11111110000000 e
b10000001 h
0`
b11100000 f
b100 x
13
#630000
03
#635000
1"
b1000 x
b100000011100000 !
b100000011100000 u
13
#640000
b1101 =
b10001100100110101000001001110100010000000110001001011100011000000101010001100010010111000110000001000000010101100100000001100010010111000110000001000000011110100100000001100100010111000110000 P"
b100000000000000 M"
b11111110000000 K"
b11111110000000 J"
b1100 <
03
#645000
0"
b0 x
13
#650000
b100000000000000 !"
b10000000 F"
b10000000 |
b10000000 S
b1111111 X
b0 U
b11111110000000 P
b1111111 Y
14
b11111110000000 9
b11111110000000 C
b11111110000000 8
b11111110000000 B
03
#655000
b1111111 K
b0 H
b1111111 O
b1111111 R
b1 x
b1111111 n
13
#655100
b10000000 J
b10000000 N
b0 Q
b100000000000000 L
b100000000000000 H"
0A"
b100000000000000 I"
#660000
04
03
#665000
b10000000 ]
b100000000 ^
b0 m
b10000000 i
b1111111 g
b10 x
13
#670000
03
#675000
b100000000000000 W
b100000000000000 _
b1111111 y
b100000000 z
b100 x
b1111111 h
b100000000 f
13
#680000
03
#685000
1"
b100000000000000 !
b100000000000000 u
b1000 x
13
#690000
b1110 =
b10001100100110101000001001110100010000000110000001011100011000000101010001100110010111000110000001000000010101100100000001100100010111000110000001000000011110100100000001100100010111000110000 P"
b100000000000000 L"
b100000001000000 K"
b0 J"
b1101 <
03
#695000
0"
b0 x
13
#700000
b11000000 F"
b0 !"
b0 G"
b11000000 |
b11000000 S
b100000000000000 a
b10000000 X
b1000000 U
b0 {
b0 T
1>
b100000001000000 P
b0 Y
14
b100000000000000 :
b100000000000000 D
b100000001000000 9
b100000001000000 C
b0 8
b0 B
03
#705000
b0 G
0@
b1 R
b10000000 K
b10000000 H
b10000000 J
b10000000 \
b0 O
b0 N
b100000000000000 c
b1 n
1o
b1 x
13
#705100
b0 L
b0 H"
0@"
b0 I"
#710000
04
03
#715000
b10000000 ^
b0 ]
b10 x
b100000000000000 d
1p
b10000000 m
b0 w
b10000000 g
13
#720000
03
#725000
b10000000 y
b10000000 z
b100000000000000 e
1q
b10000000 h
b10000000 f
b100 x
13
#730000
03
#735000
1"
b1000 x
13
#740000
b1111 =
b10001100100110101000001001110100010000000110010001011100011000000101010001100110010111000110000001000000010101100100000001010000010110100110110001011100011000000101001001000000011110100100000001100000010111000110000 P"
b0 M"
b1100000011000000 L"
b100000000000000 J"
b1110 <
03
#745000
0"
b0 x
13
#750000
b110000000000000 !"
b10000000 G"
b1100000011000000 a
b10000000 {
b10000000 T
0>
b10000000 Y
14
b1100000011000000 :
b1100000011000000 D
b100000000000000 8
b100000000000000 B
03
#755000
b0 H
b11000000 J
1I
1A
b10000001 K
b11000000 [
b10000001 R
b10000000 G
1Z
b10000001 \
b10000001 O
b10000000 N
b1 x
b1100000011000000 c
b10000001 n
0o
13
#755100
0I
1@
b11000000 G
b11000000 N
b1000000 Q
b110000000000000 L
b110000000000000 H"
1@"
1A"
b110000000000000 I"
#760000
04
03
#765000
b11000000 ]
b0 ^
b1100000011000000 d
0p
1l
b0 m
b11000000 w
b11000000 i
b10000001 g
b10 x
13
#770000
03
#775000
b0 W
b0 _
b10000001 y
b0 z
b100 x
b1100000011000000 e
0q
b10000001 h
1`
b0 f
13
#780000
03
#785000
1"
b0 !
b0 u
b1000 x
13
#790000
b10000 =
b1010010011001010100110001010101001000000100110101010101010011000011101000100000011011010110000101111000001010000011000000101100001000000010110100110110001011100011000000101001001000000011110100100000001100000010111000110000 P"
1O"
b1 N"
b0 L"
b1100000000000000 J"
b1111 <
03
#795000
0"
b0 x
13
#800000
b0 a
1F
14
16
b1 5
b1 ?
b0 :
b0 D
b1100000000000000 8
b1100000000000000 B
03
#805000
b0 G
b10000001 H
b0 [
1I
0Z
b0 \
1M
b0 c
1r
1v
b1 x
13
#810000
04
03
#815000
b11000000 ^
b0 ]
b10 x
b0 d
1s
b10000001 m
b0 w
1j
13
#820000
03
#825000
b1100000011000000 W
b100000011000000 _
b11000000 z
b0 e
1t
1k
0`
b11000000 f
b100 x
13
#830000
03
#835000
1"
b1000 x
13
#840000
b10001 =
b10100100110010101001100010101010010000001001101010101010100110000111010001000000110110101100001011110000010100000110000001011000010000000110110001011100011000000101001001000000011110100100000001101100010111000110000 P"
b100000011000000 M"
b100000000000000 J"
b10000 <
03
#845000
0"
b0 x
13
#850000
0F
14
b100000000000000 8
b100000000000000 B
03
#855000
0I
0A
0M
b1 x
0v
13
#860000
04
03
#865000
0l
0j
b10 x
13
#870000
03
#875000
b100000011000000 W
b100 x
0k
13
#880000
03
#885000
1"
b100000011000000 !
b100000011000000 u
b1000 x
13
#890000
b10010 =
b1010010011001010100110001010101001000000100000101000100010001000011101000100000011011010110000101111000001010000011000000101100001000000010110100110011001011100011000000101001001000000011110100100000001100000010111000110000 P"
b0 M"
b0 N"
b1100000000000000 K"
b1011111110000000 J"
b10001 <
03
#895000
0"
b0 x
13
#900000
b100000000000000 !"
b10000000 F"
b10000000 |
b10000000 S
b1111111 X
b0 U
b1100000000000000 a
b11111110000000 P
1F
b1111111 Y
14
b0 5
b0 ?
b1100000000000000 9
b1100000000000000 C
b1011111110000000 8
b1011111110000000 B
03
#905000
b10000000 J
0@
b10000000 K
b11000000 G
b1111111 O
b10000000 [
b1 H
b1111111 R
1I
1Z
b10000000 \
1M
b1100000000000000 c
b1111111 n
1v
b1 x
13
#905100
b10000000 G
b10000000 N
b0 Q
b100000000000000 L
b100000000000000 H"
0A"
b100000000000000 I"
#910000
04
03
#915000
b1000000 ]
b11000000 ^
b10 x
b1100000000000000 d
b1 m
b10000000 w
1j
b10000000 i
b10000000 g
13
#920000
03
#925000
b1100000001000000 W
b100000001000000 _
b10000000 y
b1100000000000000 e
1k
b10000000 h
b100 x
13
#930000
03
#935000
1"
b1000 x
b0 !
b0 u
13
#940000
b10011 =
b10100100110010101001100010101010010000001000001010001000100010000111010001000000110110101100001011110000010100000110000001011000010000000110011001011100011000000101001001000000011110100100000001100110010111000110000 P"
b100000001000000 M"
b100000000000000 K"
b11111110000000 J"
b10010 <
03
#945000
0"
b0 x
13
#950000
b100000000000000 a
0F
14
b100000000000000 9
b100000000000000 C
b11111110000000 8
b11111110000000 B
03
#955000
0I
0Z
0M
b1 x
b100000000000000 c
0v
13
#960000
04
03
#965000
b100000000000000 d
0j
b10 x
13
#970000
03
#975000
b100000001000000 W
b100 x
b100000000000000 e
0k
13
#980000
03
#985000
1"
b100000001000000 !
b100000001000000 u
b1000 x
13
#990000
b10011 <
03
#995000
0"
b0 x
13
